layer at (0,0) size 800x600
  RenderView at (0,0) size 800x600
layer at (0,0) size 800x600
  RenderBlock {HTML} at (0,0) size 800x600
    RenderBody {BODY} at (8,8) size 784x584
      RenderFieldSet {FIELDSET} at (2,0) size 112x75 [border: (2px groove #C0C0C0)]
        RenderBlock {LEGEND} at (14,0) size 84x19
          RenderText {#text} at (2,0) size 80x19
            text run at (2,0) width 80: "Number One"
        RenderBlock (anonymous) at (14,24) size 84x39
          RenderText {#text} at (0,0) size 75x19
            text run at (0,0) width 75: "Hello world."
          RenderBR {BR} at (75,15) size 0x0
          RenderText {#text} at (0,19) size 75x19
            text run at (0,19) width 75: "Hello world."
      RenderText {#text} at (116,43) size 4x19
        text run at (116,43) width 4: " "
      RenderFieldSet {FIELDSET} at (122,19) size 114x56 [border: (2px groove #C0C0C0)]
        RenderBlock {LEGEND} at (14,0) size 86x19
          RenderText {#text} at (2,0) size 82x19
            text run at (2,0) width 82: "Number Two"
        RenderBlock (anonymous) at (14,24) size 86x20
          RenderText {#text} at (0,0) size 75x19
            text run at (0,0) width 75: "Hello world."
      RenderText {#text} at (0,0) size 0x0
