layer at (0,0) size 800x600
  RenderView at (0,0) size 800x600
layer at (0,0) size 800x600
  RenderBlock {HTML} at (0,0) size 800x600
    RenderBody {BODY} at (8,8) size 784x572
      RenderBlock {P} at (0,0) size 784x38
        RenderText {#text} at (0,0) size 51x19
          text run at (0,0) width 51: "Test for "
        RenderInline {I} at (0,0) size 763x38
          RenderInline {A} at (0,0) size 305x19 [color=#0000EE]
            RenderText {#text} at (51,0) size 305x19
              text run at (51,0) width 305: "http://bugs.webkit.org/show_bug.cgi?id=17033"
          RenderText {#text} at (356,0) size 763x38
            text run at (356,0) width 4: " "
            text run at (360,0) width 403: "REGRESSION: Really long <option> causes unnecessary page"
            text run at (0,19) width 230: "scroll bars to accommodate content"
        RenderText {#text} at (230,19) size 4x19
          text run at (230,19) width 4: "."
      RenderBlock {P} at (0,54) size 784x19
        RenderText {#text} at (0,0) size 386x19
          text run at (0,0) width 386: "There should not be scroll bars below the popup and the button."
layer at (8,97) size 100x50
  RenderBlock {DIV} at (0,89) size 100x50
    RenderMenuList {SELECT} at (0,2) size 80x24 [bgcolor=#FFFFFF]
      RenderBlock (anonymous) at (4,2) size 55x20
        RenderText at (0,0) size 165x19
          text run at (0,0) width 165: "Lorem ipsum dolor sit amet"
    RenderText {#text} at (0,0) size 0x0
layer at (8,167) size 100x50
  RenderBlock {DIV} at (0,159) size 100x50
    RenderButton {BUTTON} at (0,2) size 80x31 [bgcolor=#C0C0C0]
      RenderBlock (anonymous) at (6,6) size 68x19
        RenderText {#text} at (0,0) size 165x19
          text run at (0,0) width 165: "Lorem ipsum dolor sit amet"
    RenderText {#text} at (0,0) size 0x0
