layer at (0,0) size 800x600
  RenderView at (0,0) size 800x600
layer at (0,0) size 800x257
  RenderBlock {HTML} at (0,0) size 800x257
    RenderBody {BODY} at (8,16) size 784x233
      RenderBlock {P} at (0,0) size 784x19
        RenderText {#text} at (0,0) size 699x19
          text run at (0,0) width 699: "Test passes if the blue square is in the upper-left corner of the black rectangle and there is no red visible on the page."
layer at (8,51) size 294x198
  RenderBlock (relative positioned) {DIV} at (0,35) size 294x198 [border: (3px solid #000000)]
layer at (11,54) size 96x96
  RenderBlock (positioned) {DIV} at (3,3) size 96x96 [color=#0000FF] [bgcolor=#FF0000]
    RenderText {#text} at (0,-1) size 96x97
      text run at (0,-1) width 96: "X"
