layer at (0,0) size 800x600
  RenderView at (0,0) size 800x600
layer at (0,0) size 800x600
  RenderSVGRoot {svg} at (0,0) size 800x600
    RenderSVGContainer {g} at (8,22) size 770x462
      RenderSVGText {text} at (5,13) size 409x46 contains 1 chunk(s)
        RenderSVGInlineText {#text} at (0,0) size 409x46
          chunk 1 text run 1 at (5.00,50.00) startOffset 0 endOffset 26 width 408.60: "Test 'altGlyph' facilities"
      RenderSVGText {text} at (5,62) size 462x35 contains 1 chunk(s)
        RenderSVGInlineText {#text} at (0,0) size 462x35
          chunk 1 text run 1 at (5.00,90.00) startOffset 0 endOffset 32 width 461.40: "and many-to-many chars to glyphs"
      RenderSVGHiddenContainer {defs} at (0,0) size 0x0
      RenderSVGContainer {g} at (75,208) size 663x276
        RenderSVGText {text} at (140,130) size 188x75 contains 1 chunk(s)
          RenderSVGTSpan {altGlyph} at (0,0) size 38x75
            RenderSVGInlineText {#text} at (0,0) size 38x75
              chunk 1 text run 1 at (140.00,190.00) startOffset 0 endOffset 1 width 37.50: "H"
          RenderSVGInlineText {#text} at (0,0) size 0x0
          RenderSVGTSpan {altGlyph} at (0,0) size 38x75
            RenderSVGInlineText {#text} at (37,0) size 38x75
              chunk 1 text run 1 at (177.50,190.00) startOffset 0 endOffset 1 width 37.50: "A"
          RenderSVGInlineText {#text} at (0,0) size 0x0
          RenderSVGTSpan {altGlyph} at (0,0) size 38x75
            RenderSVGInlineText {#text} at (75,0) size 38x75
              chunk 1 text run 1 at (215.00,190.00) startOffset 0 endOffset 1 width 37.50: "P"
          RenderSVGInlineText {#text} at (0,0) size 0x0
          RenderSVGTSpan {altGlyph} at (0,0) size 38x75
            RenderSVGInlineText {#text} at (112,0) size 38x75
              chunk 1 text run 1 at (252.50,190.00) startOffset 0 endOffset 1 width 37.50: "P"
          RenderSVGInlineText {#text} at (0,0) size 0x0
          RenderSVGTSpan {altGlyph} at (0,0) size 38x75
            RenderSVGInlineText {#text} at (150,0) size 38x75
              chunk 1 text run 1 at (290.00,190.00) startOffset 0 endOffset 1 width 37.50: "Y"
          RenderSVGInlineText {#text} at (0,0) size 0x0
        RenderSVGText {text} at (50,210) size 113x75 contains 1 chunk(s)
          RenderSVGTSpan {altGlyph} at (0,0) size 38x75
            RenderSVGInlineText {#text} at (0,0) size 38x75
              chunk 1 text run 1 at (50.00,270.00) startOffset 0 endOffset 1 width 37.50: "S"
          RenderSVGTSpan {altGlyph} at (0,0) size 38x75
            RenderSVGInlineText {#text} at (37,0) size 38x75
              chunk 1 text run 1 at (87.50,270.00) startOffset 0 endOffset 1 width 37.50: "A"
          RenderSVGInlineText {#text} at (75,0) size 38x75
            chunk 1 text run 1 at (125.00,270.00) startOffset 0 endOffset 1 width 37.50: "D"
        RenderSVGText {text} at (280,210) size 158x75 contains 1 chunk(s)
          RenderSVGInlineText {#text} at (0,0) size 158x75
            chunk 1 text run 1 at (280.00,270.00) startOffset 0 endOffset 5 width 157.50: "SASSY"
    RenderSVGText {text} at (10,304) size 269x45 contains 1 chunk(s)
      RenderSVGInlineText {#text} at (0,0) size 269x45
        chunk 1 text run 1 at (10.00,340.00) startOffset 0 endOffset 16 width 268.20: "$Revision: 1.5 $"
    RenderSVGRect {rect} at (0,0) size 800x600 [stroke={[type=SOLID] [color=#000000]}] [x=1.00] [y=1.00] [width=478.00] [height=358.00]
selection start: position 0 of child 0 {#text} of child 1 {text} of child 13 {g} of child 32 {svg} of document
selection end:   position 16 of child 0 {#text} of child 15 {text} of child 32 {svg} of document
