layer at (0,0) size 800x600
  RenderView at (0,0) size 800x600
layer at (0,0) size 800x600
  RenderSVGRoot {svg} at (0,0) size 800x600
    RenderSVGContainer {g} at (0,0) size 800x600
      RenderSVGText {text} at (10,5) size 311x19 contains 1 chunk(s)
        RenderSVGInlineText {#text} at (0,0) size 311x19
          chunk 1 text run 1 at (10.00,20.00) startOffset 0 endOffset 46 width 310.20: "Test single line and multiline text selection."
      RenderSVGContainer {g} at (41,83) size 615x365
        RenderSVGText {text} at (25,50) size 260x19 contains 1 chunk(s)
          RenderSVGInlineText {#text} at (0,0) size 260x19
            chunk 1 text run 1 at (25.00,65.00) startOffset 0 endOffset 37 width 259.20: "Here is a stand-alone 'text' element."
        RenderSVGText {text} at (25,75) size 305x19 contains 1 chunk(s)
          RenderSVGInlineText {#text} at (0,0) size 305x19
            chunk 1 text run 1 at (25.00,90.00) startOffset 0 endOffset 43 width 304.20: "Here is a second 'text' element just below."
        RenderSVGText {text} at (25,100) size 350x19 contains 1 chunk(s)
          RenderSVGInlineText {#text} at (0,0) size 350x19
            chunk 1 text run 1 at (25.00,115.00) startOffset 0 endOffset 48 width 349.80: "Because these are four separate 'text' elements,"
        RenderSVGText {text} at (25,125) size 333x19 contains 1 chunk(s)
          RenderSVGInlineText {#text} at (0,0) size 333x19
            chunk 1 text run 1 at (25.00,140.00) startOffset 0 endOffset 47 width 332.40: "text selection should not go across lines here."
        RenderSVGText {text} at (25,175) size 369x94 contains 1 chunk(s)
          RenderSVGTSpan {tspan} at (0,0) size 364x19
            RenderSVGInlineText {#text} at (0,0) size 364x19
              chunk 1 text run 1 at (25.00,190.00) startOffset 0 endOffset 50 width 363.60: "However, these lines of text are achieved by using"
          RenderSVGInlineText {#text} at (363,0) size 5x19
            chunk 1 text run 1 at (388.60,190.00) startOffset 0 endOffset 1 width 4.80: " "
          RenderSVGTSpan {tspan} at (0,0) size 356x19
            RenderSVGInlineText {#text} at (0,25) size 356x19
              chunk 1 text run 1 at (25.00,215.00) startOffset 0 endOffset 51 width 355.80: "one 'tspan' per line, all contained within the same"
          RenderSVGInlineText {#text} at (355,25) size 5x19
            chunk 1 text run 1 at (380.80,215.00) startOffset 0 endOffset 1 width 4.80: " "
          RenderSVGTSpan {tspan} at (0,0) size 351x19
            RenderSVGInlineText {#text} at (0,50) size 351x19
              chunk 1 text run 1 at (25.00,240.00) startOffset 0 endOffset 51 width 351.00: "'text' element, so you should be able to select all"
          RenderSVGInlineText {#text} at (350,50) size 5x19
            chunk 1 text run 1 at (376.00,240.00) startOffset 0 endOffset 1 width 4.80: " "
          RenderSVGTSpan {tspan} at (0,0) size 197x19
            RenderSVGInlineText {#text} at (0,75) size 197x19
              chunk 1 text run 1 at (25.00,265.00) startOffset 0 endOffset 28 width 196.80: "four lines at the same time."
          RenderSVGInlineText {#text} at (0,0) size 0x0
      RenderSVGText {text} at (10,304) size 269x45 contains 1 chunk(s)
        RenderSVGInlineText {#text} at (0,0) size 269x45
          chunk 1 text run 1 at (10.00,340.00) startOffset 0 endOffset 16 width 268.20: "$Revision: 1.8 $"
      RenderSVGRect {rect} at (0,0) size 800x600 [stroke={[type=SOLID] [color=#000000]}] [x=1.00] [y=1.00] [width=478.00] [height=358.00]
selection start: position 0 of child 0 {#text} of child 1 {text} of child 13 {g} of child 25 {svg} of document
selection end:   position 16 of child 0 {#text} of child 5 {text} of child 13 {g} of child 25 {svg} of document
