layer at (0,0) size 4792x585
  RenderView at (0,0) size 800x585
layer at (0,0) size 800x316
  RenderBlock {HTML} at (0,0) size 800x316
    RenderBody {BODY} at (8,8) size 784x300
layer at (8,8) size 784x300
  RenderBlock {DIV} at (0,0) size 784x300
    RenderBlock {P} at (0,16) size 251x550
      RenderText {#text} at (0,0) size 250x550
        text run at (0,0) width 242: "Lorem ipsum dolor sit amet, consectetur"
        text run at (0,19) width 229: "adipiscing elit. Donec posuere ligula et"
        text run at (0,38) width 244: "neque ullamcorper consectetur. Duis nec"
        text run at (0,57) width 248: "viverra magna. Nullam tellus diam, auctor"
        text run at (0,76) width 225: "et auctor at, fermentum quis mi. Nulla"
        text run at (0,95) width 239: "rhoncus porttitor ultrices. Nunc gravida,"
        text run at (0,114) width 221: "nisi nec consequat scelerisque, lectus"
        text run at (0,133) width 241: "eros sagittis erat, non ultrices ipsum nibh"
        text run at (0,152) width 216: "in quam. Donec dignissim, lacus sed"
        text run at (0,171) width 217: "cursus commodo, nibh enim sodales"
        text run at (0,190) width 226: "metus, lacinia dictum felis est tincidunt"
        text run at (0,209) width 218: "orci. Morbi pretium volutpat ante, ut"
        text run at (0,228) width 235: "ultricies nulla pharetra sed. Duis ac felis"
        text run at (0,247) width 230: "quis justo ullamcorper semper. Integer"
        text run at (0,284) width 224: "augue lacus, imperdiet eu euismod ut,"
        text run at (0,303) width 250: "vulputate vel purus. Donec bibendum felis"
        text run at (0,322) width 223: "id nisl auctor sit amet imperdiet quam"
        text run at (0,341) width 238: "mollis. Duis aliquam tellus odio, a varius"
        text run at (0,360) width 185: "lectus. Nunc a tortor augue, eu"
        text run at (0,379) width 241: "sollicitudin nibh. Phasellus ultricies, lacus"
        text run at (0,398) width 223: "eget tincidunt mattis, velit erat facilisis"
        text run at (0,417) width 234: "lacus, quis luctus arcu erat ut erat. Duis"
        text run at (0,436) width 250: "feugiat eros eu ligula ultricies non tincidunt"
        text run at (0,455) width 236: "tellus viverra. Donec ut eros augue, nec"
        text run at (0,474) width 209: "elementum elit. Pellentesque massa"
        text run at (0,493) width 206: "lectus, vulputate sed vehicula eget,"
        text run at (0,512) width 246: "volutpat eu augue. Cras fermentum turpis"
        text run at (0,531) width 238: "vitae erat vehicula et lacinia mi molestie."
    RenderBlock {P} at (0,600) size 251x452
      RenderText {#text} at (0,0) size 249x452
        text run at (0,0) width 232: "Curabitur ac porttitor leo. Class aptent"
        text run at (0,19) width 216: "taciti sociosqu ad litora torquent per"
        text run at (0,38) width 241: "conubia nostra, per inceptos himenaeos."
        text run at (0,57) width 249: "Quisque eget mauris id turpis ullamcorper"
        text run at (0,76) width 200: "blandit quis eget turpis. Nullam et"
        text run at (0,95) width 248: "molestie elit. Curabitur urna arcu, luctus a"
        text run at (0,114) width 202: "suscipit et, viverra vel orci. Morbi"
        text run at (0,133) width 206: "scelerisque erat quis massa blandit"
        text run at (0,152) width 246: "molestie. Fusce vitae velit a lacus suscipit"
        text run at (0,171) width 216: "tempus. In vitae nisl orci, vel ultrices"
        text run at (0,190) width 237: "diam. Duis pellentesque, massa sit amet"
        text run at (0,209) width 227: "eleifend sollicitudin, dolor orci semper"
        text run at (0,228) width 242: "urna, eget euismod tortor massa sit amet"
        text run at (0,247) width 235: "ante. Quisque sed varius lectus. Mauris"
        text run at (0,266) width 234: "facilisis blandit mattis. Ut id tortor ante,"
        text run at (0,300) width 242: "ac eleifend dui. Donec sit amet arcu quis"
        text run at (0,319) width 242: "neque aliquam euismod a tincidunt justo."
        text run at (0,338) width 205: "Integer sagittis, neque sed aliquam"
        text run at (0,357) width 227: "bibendum, est ante vulputate lectus, in"
        text run at (0,376) width 242: "elementum felis tellus et nibh. Aliquam id"
        text run at (0,395) width 247: "ultrices nisl. Sed sodales lacinia interdum."
        text run at (0,414) width 217: "Aenean pharetra tellus ante, aliquam"
        text run at (0,433) width 107: "consectetur ligula."
    RenderBlock {P} at (0,1068) size 251x565
      RenderText {#text} at (0,0) size 250x565
        text run at (0,0) width 242: "Lorem ipsum dolor sit amet, consectetur"
        text run at (0,19) width 229: "adipiscing elit. Donec posuere ligula et"
        text run at (0,38) width 244: "neque ullamcorper consectetur. Duis nec"
        text run at (0,57) width 248: "viverra magna. Nullam tellus diam, auctor"
        text run at (0,76) width 225: "et auctor at, fermentum quis mi. Nulla"
        text run at (0,95) width 239: "rhoncus porttitor ultrices. Nunc gravida,"
        text run at (0,132) width 221: "nisi nec consequat scelerisque, lectus"
        text run at (0,151) width 241: "eros sagittis erat, non ultrices ipsum nibh"
        text run at (0,170) width 216: "in quam. Donec dignissim, lacus sed"
        text run at (0,189) width 217: "cursus commodo, nibh enim sodales"
        text run at (0,208) width 226: "metus, lacinia dictum felis est tincidunt"
        text run at (0,227) width 218: "orci. Morbi pretium volutpat ante, ut"
        text run at (0,246) width 235: "ultricies nulla pharetra sed. Duis ac felis"
        text run at (0,265) width 230: "quis justo ullamcorper semper. Integer"
        text run at (0,284) width 224: "augue lacus, imperdiet eu euismod ut,"
        text run at (0,303) width 250: "vulputate vel purus. Donec bibendum felis"
        text run at (0,322) width 223: "id nisl auctor sit amet imperdiet quam"
        text run at (0,341) width 238: "mollis. Duis aliquam tellus odio, a varius"
        text run at (0,360) width 185: "lectus. Nunc a tortor augue, eu"
        text run at (0,379) width 241: "sollicitudin nibh. Phasellus ultricies, lacus"
        text run at (0,398) width 223: "eget tincidunt mattis, velit erat facilisis"
        text run at (0,432) width 234: "lacus, quis luctus arcu erat ut erat. Duis"
        text run at (0,451) width 250: "feugiat eros eu ligula ultricies non tincidunt"
        text run at (0,470) width 236: "tellus viverra. Donec ut eros augue, nec"
        text run at (0,489) width 209: "elementum elit. Pellentesque massa"
        text run at (0,508) width 206: "lectus, vulputate sed vehicula eget,"
        text run at (0,527) width 246: "volutpat eu augue. Cras fermentum turpis"
        text run at (0,546) width 238: "vitae erat vehicula et lacinia mi molestie."
    RenderBlock {P} at (0,1649) size 251x470
      RenderText {#text} at (0,0) size 249x470
        text run at (0,0) width 232: "Curabitur ac porttitor leo. Class aptent"
        text run at (0,19) width 216: "taciti sociosqu ad litora torquent per"
        text run at (0,38) width 241: "conubia nostra, per inceptos himenaeos."
        text run at (0,57) width 249: "Quisque eget mauris id turpis ullamcorper"
        text run at (0,76) width 200: "blandit quis eget turpis. Nullam et"
        text run at (0,95) width 248: "molestie elit. Curabitur urna arcu, luctus a"
        text run at (0,114) width 202: "suscipit et, viverra vel orci. Morbi"
        text run at (0,151) width 206: "scelerisque erat quis massa blandit"
        text run at (0,170) width 246: "molestie. Fusce vitae velit a lacus suscipit"
        text run at (0,189) width 216: "tempus. In vitae nisl orci, vel ultrices"
        text run at (0,208) width 237: "diam. Duis pellentesque, massa sit amet"
        text run at (0,227) width 227: "eleifend sollicitudin, dolor orci semper"
        text run at (0,246) width 242: "urna, eget euismod tortor massa sit amet"
        text run at (0,265) width 235: "ante. Quisque sed varius lectus. Mauris"
        text run at (0,284) width 234: "facilisis blandit mattis. Ut id tortor ante,"
        text run at (0,303) width 242: "ac eleifend dui. Donec sit amet arcu quis"
        text run at (0,322) width 242: "neque aliquam euismod a tincidunt justo."
        text run at (0,341) width 205: "Integer sagittis, neque sed aliquam"
        text run at (0,360) width 227: "bibendum, est ante vulputate lectus, in"
        text run at (0,379) width 242: "elementum felis tellus et nibh. Aliquam id"
        text run at (0,398) width 247: "ultrices nisl. Sed sodales lacinia interdum."
        text run at (0,417) width 217: "Aenean pharetra tellus ante, aliquam"
        text run at (0,451) width 107: "consectetur ligula."
    RenderBlock {P} at (0,2135) size 251x550
      RenderText {#text} at (0,0) size 250x550
        text run at (0,0) width 242: "Lorem ipsum dolor sit amet, consectetur"
        text run at (0,19) width 229: "adipiscing elit. Donec posuere ligula et"
        text run at (0,38) width 244: "neque ullamcorper consectetur. Duis nec"
        text run at (0,57) width 248: "viverra magna. Nullam tellus diam, auctor"
        text run at (0,76) width 225: "et auctor at, fermentum quis mi. Nulla"
        text run at (0,95) width 239: "rhoncus porttitor ultrices. Nunc gravida,"
        text run at (0,114) width 221: "nisi nec consequat scelerisque, lectus"
        text run at (0,133) width 241: "eros sagittis erat, non ultrices ipsum nibh"
        text run at (0,152) width 216: "in quam. Donec dignissim, lacus sed"
        text run at (0,171) width 217: "cursus commodo, nibh enim sodales"
        text run at (0,190) width 226: "metus, lacinia dictum felis est tincidunt"
        text run at (0,209) width 218: "orci. Morbi pretium volutpat ante, ut"
        text run at (0,228) width 235: "ultricies nulla pharetra sed. Duis ac felis"
        text run at (0,265) width 230: "quis justo ullamcorper semper. Integer"
        text run at (0,284) width 224: "augue lacus, imperdiet eu euismod ut,"
        text run at (0,303) width 250: "vulputate vel purus. Donec bibendum felis"
        text run at (0,322) width 223: "id nisl auctor sit amet imperdiet quam"
        text run at (0,341) width 238: "mollis. Duis aliquam tellus odio, a varius"
        text run at (0,360) width 185: "lectus. Nunc a tortor augue, eu"
        text run at (0,379) width 241: "sollicitudin nibh. Phasellus ultricies, lacus"
        text run at (0,398) width 223: "eget tincidunt mattis, velit erat facilisis"
        text run at (0,417) width 234: "lacus, quis luctus arcu erat ut erat. Duis"
        text run at (0,436) width 250: "feugiat eros eu ligula ultricies non tincidunt"
        text run at (0,455) width 236: "tellus viverra. Donec ut eros augue, nec"
        text run at (0,474) width 209: "elementum elit. Pellentesque massa"
        text run at (0,493) width 206: "lectus, vulputate sed vehicula eget,"
        text run at (0,512) width 246: "volutpat eu augue. Cras fermentum turpis"
        text run at (0,531) width 238: "vitae erat vehicula et lacinia mi molestie."
    RenderBlock {P} at (0,2700) size 251x452
      RenderText {#text} at (0,0) size 249x452
        text run at (0,0) width 232: "Curabitur ac porttitor leo. Class aptent"
        text run at (0,19) width 216: "taciti sociosqu ad litora torquent per"
        text run at (0,38) width 241: "conubia nostra, per inceptos himenaeos."
        text run at (0,57) width 249: "Quisque eget mauris id turpis ullamcorper"
        text run at (0,76) width 200: "blandit quis eget turpis. Nullam et"
        text run at (0,95) width 248: "molestie elit. Curabitur urna arcu, luctus a"
        text run at (0,114) width 202: "suscipit et, viverra vel orci. Morbi"
        text run at (0,133) width 206: "scelerisque erat quis massa blandit"
        text run at (0,152) width 246: "molestie. Fusce vitae velit a lacus suscipit"
        text run at (0,171) width 216: "tempus. In vitae nisl orci, vel ultrices"
        text run at (0,190) width 237: "diam. Duis pellentesque, massa sit amet"
        text run at (0,209) width 227: "eleifend sollicitudin, dolor orci semper"
        text run at (0,228) width 242: "urna, eget euismod tortor massa sit amet"
        text run at (0,247) width 235: "ante. Quisque sed varius lectus. Mauris"
        text run at (0,266) width 234: "facilisis blandit mattis. Ut id tortor ante,"
        text run at (0,300) width 242: "ac eleifend dui. Donec sit amet arcu quis"
        text run at (0,319) width 242: "neque aliquam euismod a tincidunt justo."
        text run at (0,338) width 205: "Integer sagittis, neque sed aliquam"
        text run at (0,357) width 227: "bibendum, est ante vulputate lectus, in"
        text run at (0,376) width 242: "elementum felis tellus et nibh. Aliquam id"
        text run at (0,395) width 247: "ultrices nisl. Sed sodales lacinia interdum."
        text run at (0,414) width 217: "Aenean pharetra tellus ante, aliquam"
        text run at (0,433) width 107: "consectetur ligula."
    RenderBlock {P} at (0,3168) size 251x565
      RenderText {#text} at (0,0) size 250x565
        text run at (0,0) width 242: "Lorem ipsum dolor sit amet, consectetur"
        text run at (0,19) width 229: "adipiscing elit. Donec posuere ligula et"
        text run at (0,38) width 244: "neque ullamcorper consectetur. Duis nec"
        text run at (0,57) width 248: "viverra magna. Nullam tellus diam, auctor"
        text run at (0,76) width 225: "et auctor at, fermentum quis mi. Nulla"
        text run at (0,95) width 239: "rhoncus porttitor ultrices. Nunc gravida,"
        text run at (0,132) width 221: "nisi nec consequat scelerisque, lectus"
        text run at (0,151) width 241: "eros sagittis erat, non ultrices ipsum nibh"
        text run at (0,170) width 216: "in quam. Donec dignissim, lacus sed"
        text run at (0,189) width 217: "cursus commodo, nibh enim sodales"
        text run at (0,208) width 226: "metus, lacinia dictum felis est tincidunt"
        text run at (0,227) width 218: "orci. Morbi pretium volutpat ante, ut"
        text run at (0,246) width 235: "ultricies nulla pharetra sed. Duis ac felis"
        text run at (0,265) width 230: "quis justo ullamcorper semper. Integer"
        text run at (0,284) width 224: "augue lacus, imperdiet eu euismod ut,"
        text run at (0,303) width 250: "vulputate vel purus. Donec bibendum felis"
        text run at (0,322) width 223: "id nisl auctor sit amet imperdiet quam"
        text run at (0,341) width 238: "mollis. Duis aliquam tellus odio, a varius"
        text run at (0,360) width 185: "lectus. Nunc a tortor augue, eu"
        text run at (0,379) width 241: "sollicitudin nibh. Phasellus ultricies, lacus"
        text run at (0,398) width 223: "eget tincidunt mattis, velit erat facilisis"
        text run at (0,432) width 234: "lacus, quis luctus arcu erat ut erat. Duis"
        text run at (0,451) width 250: "feugiat eros eu ligula ultricies non tincidunt"
        text run at (0,470) width 236: "tellus viverra. Donec ut eros augue, nec"
        text run at (0,489) width 209: "elementum elit. Pellentesque massa"
        text run at (0,508) width 206: "lectus, vulputate sed vehicula eget,"
        text run at (0,527) width 246: "volutpat eu augue. Cras fermentum turpis"
        text run at (0,546) width 238: "vitae erat vehicula et lacinia mi molestie."
    RenderBlock {P} at (0,3749) size 251x470
      RenderText {#text} at (0,0) size 249x470
        text run at (0,0) width 232: "Curabitur ac porttitor leo. Class aptent"
        text run at (0,19) width 216: "taciti sociosqu ad litora torquent per"
        text run at (0,38) width 241: "conubia nostra, per inceptos himenaeos."
        text run at (0,57) width 249: "Quisque eget mauris id turpis ullamcorper"
        text run at (0,76) width 200: "blandit quis eget turpis. Nullam et"
        text run at (0,95) width 248: "molestie elit. Curabitur urna arcu, luctus a"
        text run at (0,114) width 202: "suscipit et, viverra vel orci. Morbi"
        text run at (0,151) width 206: "scelerisque erat quis massa blandit"
        text run at (0,170) width 246: "molestie. Fusce vitae velit a lacus suscipit"
        text run at (0,189) width 216: "tempus. In vitae nisl orci, vel ultrices"
        text run at (0,208) width 237: "diam. Duis pellentesque, massa sit amet"
        text run at (0,227) width 227: "eleifend sollicitudin, dolor orci semper"
        text run at (0,246) width 242: "urna, eget euismod tortor massa sit amet"
        text run at (0,265) width 235: "ante. Quisque sed varius lectus. Mauris"
        text run at (0,284) width 234: "facilisis blandit mattis. Ut id tortor ante,"
        text run at (0,303) width 242: "ac eleifend dui. Donec sit amet arcu quis"
        text run at (0,322) width 242: "neque aliquam euismod a tincidunt justo."
        text run at (0,341) width 205: "Integer sagittis, neque sed aliquam"
        text run at (0,360) width 227: "bibendum, est ante vulputate lectus, in"
        text run at (0,379) width 242: "elementum felis tellus et nibh. Aliquam id"
        text run at (0,398) width 247: "ultrices nisl. Sed sodales lacinia interdum."
        text run at (0,417) width 217: "Aenean pharetra tellus ante, aliquam"
        text run at (0,451) width 107: "consectetur ligula."
    RenderBlock {P} at (0,4235) size 251x550
      RenderText {#text} at (0,0) size 250x550
        text run at (0,0) width 242: "Lorem ipsum dolor sit amet, consectetur"
        text run at (0,19) width 229: "adipiscing elit. Donec posuere ligula et"
        text run at (0,38) width 244: "neque ullamcorper consectetur. Duis nec"
        text run at (0,57) width 248: "viverra magna. Nullam tellus diam, auctor"
        text run at (0,76) width 225: "et auctor at, fermentum quis mi. Nulla"
        text run at (0,95) width 239: "rhoncus porttitor ultrices. Nunc gravida,"
        text run at (0,114) width 221: "nisi nec consequat scelerisque, lectus"
        text run at (0,133) width 241: "eros sagittis erat, non ultrices ipsum nibh"
        text run at (0,152) width 216: "in quam. Donec dignissim, lacus sed"
        text run at (0,171) width 217: "cursus commodo, nibh enim sodales"
        text run at (0,190) width 226: "metus, lacinia dictum felis est tincidunt"
        text run at (0,209) width 218: "orci. Morbi pretium volutpat ante, ut"
        text run at (0,228) width 235: "ultricies nulla pharetra sed. Duis ac felis"
        text run at (0,265) width 230: "quis justo ullamcorper semper. Integer"
        text run at (0,284) width 224: "augue lacus, imperdiet eu euismod ut,"
        text run at (0,303) width 250: "vulputate vel purus. Donec bibendum felis"
        text run at (0,322) width 223: "id nisl auctor sit amet imperdiet quam"
        text run at (0,341) width 238: "mollis. Duis aliquam tellus odio, a varius"
        text run at (0,360) width 185: "lectus. Nunc a tortor augue, eu"
        text run at (0,379) width 241: "sollicitudin nibh. Phasellus ultricies, lacus"
        text run at (0,398) width 223: "eget tincidunt mattis, velit erat facilisis"
        text run at (0,417) width 234: "lacus, quis luctus arcu erat ut erat. Duis"
        text run at (0,436) width 250: "feugiat eros eu ligula ultricies non tincidunt"
        text run at (0,455) width 236: "tellus viverra. Donec ut eros augue, nec"
        text run at (0,474) width 209: "elementum elit. Pellentesque massa"
        text run at (0,493) width 206: "lectus, vulputate sed vehicula eget,"
        text run at (0,512) width 246: "volutpat eu augue. Cras fermentum turpis"
        text run at (0,531) width 238: "vitae erat vehicula et lacinia mi molestie."
    RenderBlock {P} at (0,4800) size 251x452
      RenderText {#text} at (0,0) size 249x452
        text run at (0,0) width 232: "Curabitur ac porttitor leo. Class aptent"
        text run at (0,19) width 216: "taciti sociosqu ad litora torquent per"
        text run at (0,38) width 241: "conubia nostra, per inceptos himenaeos."
        text run at (0,57) width 249: "Quisque eget mauris id turpis ullamcorper"
        text run at (0,76) width 200: "blandit quis eget turpis. Nullam et"
        text run at (0,95) width 248: "molestie elit. Curabitur urna arcu, luctus a"
        text run at (0,114) width 202: "suscipit et, viverra vel orci. Morbi"
        text run at (0,133) width 206: "scelerisque erat quis massa blandit"
        text run at (0,152) width 246: "molestie. Fusce vitae velit a lacus suscipit"
        text run at (0,171) width 216: "tempus. In vitae nisl orci, vel ultrices"
        text run at (0,190) width 237: "diam. Duis pellentesque, massa sit amet"
        text run at (0,209) width 227: "eleifend sollicitudin, dolor orci semper"
        text run at (0,228) width 242: "urna, eget euismod tortor massa sit amet"
        text run at (0,247) width 235: "ante. Quisque sed varius lectus. Mauris"
        text run at (0,266) width 234: "facilisis blandit mattis. Ut id tortor ante,"
        text run at (0,300) width 242: "ac eleifend dui. Donec sit amet arcu quis"
        text run at (0,319) width 242: "neque aliquam euismod a tincidunt justo."
        text run at (0,338) width 205: "Integer sagittis, neque sed aliquam"
        text run at (0,357) width 227: "bibendum, est ante vulputate lectus, in"
        text run at (0,376) width 242: "elementum felis tellus et nibh. Aliquam id"
        text run at (0,395) width 247: "ultrices nisl. Sed sodales lacinia interdum."
        text run at (0,414) width 217: "Aenean pharetra tellus ante, aliquam"
        text run at (0,433) width 107: "consectetur ligula."
scrolled to 100,0
