(GraphicsLayer
  (bounds 785.00 3700.00)
  (children 1
    (GraphicsLayer
      (bounds 785.00 3700.00)
      (children 2
        (GraphicsLayer
          (position 0.00 200.00)
          (anchor 0.00 0.00)
          (bounds 785.00 600.00)
          (contentsOpaque 1)
          (drawsContent 1)
          (backgroundColor #FFFFFF)
        )
        (GraphicsLayer
          (bounds 785.00 3700.00)
          (drawsContent 1)
          (tile cache coverage 0, 0 785 x 1024)
          (tile size 512 x 512)
          (top left tile 0, 0 tiles grid 2 x 2)
          (children 1
            (GraphicsLayer
            )
          )
        )
      )
    )
  )
)

