layer at (0,0) size 785x2774
  RenderView at (0,0) size 785x600
layer at (0,0) size 785x2774
  RenderBlock {HTML} at (0,0) size 785x2775
    RenderBody {BODY} at (8,8) size 769x2759 [bgcolor=#CCCCCC]
      RenderBlock {P} at (0,0) size 769x19
        RenderText {#text} at (0,0) size 337x19
          text run at (0,0) width 337: "The style declarations which apply to the text below are:"
      RenderBlock {PRE} at (0,35) size 769x300
        RenderText {#text} at (0,0) size 224x300
          text run at (0,0) width 200: ".one {font-size: medium;}"
          text run at (200,0) width 0: " "
          text run at (0,15) width 200: ".two {font-size: larger;}"
          text run at (200,15) width 0: " "
          text run at (0,30) width 224: ".three {font-size: smaller;}"
          text run at (224,30) width 0: " "
          text run at (0,45) width 224: ".four {font-size: xx-small;}"
          text run at (224,45) width 0: " "
          text run at (0,60) width 216: ".five {font-size: x-small;}"
          text run at (216,60) width 0: " "
          text run at (0,75) width 192: ".six {font-size: small;}"
          text run at (192,75) width 0: " "
          text run at (0,90) width 208: ".seven {font-size: large;}"
          text run at (208,90) width 0: " "
          text run at (0,105) width 224: ".eight {font-size: x-large;}"
          text run at (224,105) width 0: " "
          text run at (0,120) width 224: ".nine {font-size: xx-large;}"
          text run at (224,120) width 0: " "
          text run at (0,135) width 176: ".a {font-size: 0.5in;}"
          text run at (176,135) width 0: " "
          text run at (0,150) width 160: ".b {font-size: 1cm;}"
          text run at (160,150) width 0: " "
          text run at (0,165) width 168: ".c {font-size: 10mm;}"
          text run at (168,165) width 0: " "
          text run at (0,180) width 168: ".d {font-size: 18pt;}"
          text run at (168,180) width 0: " "
          text run at (0,195) width 176: ".e {font-size: 1.5pc;}"
          text run at (176,195) width 0: " "
          text run at (0,210) width 160: ".f {font-size: 2em;}"
          text run at (160,210) width 0: " "
          text run at (0,225) width 160: ".g {font-size: 3ex;}"
          text run at (160,225) width 0: " "
          text run at (0,240) width 168: ".h {font-size: 25px;}"
          text run at (168,240) width 0: " "
          text run at (0,255) width 168: ".i {font-size: 200%;}"
          text run at (168,255) width 0: " "
          text run at (0,270) width 184: ".j {font-size: -0.5in;}"
          text run at (184,270) width 0: " "
          text run at (0,285) width 0: " "
      RenderBlock {HR} at (0,348) size 769x2 [border: (1px inset #000000)]
      RenderBlock {P} at (0,366) size 769x19
        RenderText {#text} at (0,0) size 648x19
          text run at (0,0) width 648: "This paragraph element is unstyled, so the size of the font in this element is the default size for this user agent."
      RenderBlock {P} at (0,401) size 769x19
        RenderText {#text} at (0,0) size 179x19
          text run at (0,0) width 179: "This sentence has been set to "
        RenderInline {CODE} at (0,0) size 48x15
          RenderText {#text} at (179,4) size 48x15
            text run at (179,4) width 48: "medium"
        RenderText {#text} at (227,0) size 343x19
          text run at (227,0) width 343: ", which may or may not be the same size as unstyled text."
      RenderBlock {P} at (0,439) size 769x23
        RenderText {#text} at (0,0) size 366x22
          text run at (0,0) width 366: "This sentence should be larger than unstyled text."
      RenderBlock {P} at (0,480) size 769x16
        RenderText {#text} at (0,0) size 273x15
          text run at (0,0) width 273: "This sentence should be smaller than unstyled text."
      RenderBlock {P} at (0,508) size 769x20
        RenderText {#text} at (0,6) size 303x11
          text run at (0,6) width 303: "This sentence should be very small, but the last word in the sentence should be "
        RenderInline {SPAN} at (0,0) size 47x19
          RenderText {#text} at (303,0) size 47x19
            text run at (303,0) width 47: "medium"
        RenderText {#text} at (350,6) size 2x11
          text run at (350,6) width 2: "."
      RenderBlock {P} at (0,537) size 769x20
        RenderText {#text} at (0,6) size 328x12
          text run at (0,6) width 328: "This sentence should be rather small, but the last word in the sentence should be "
        RenderInline {SPAN} at (0,0) size 47x19
          RenderText {#text} at (328,0) size 47x19
            text run at (328,0) width 47: "medium"
        RenderText {#text} at (375,6) size 3x12
          text run at (375,6) width 3: "."
      RenderBlock {P} at (0,569) size 769x20
        RenderText {#text} at (0,3) size 400x15
          text run at (0,3) width 400: "This sentence should be small, but the last word in the sentence should be "
        RenderInline {SPAN} at (0,0) size 47x19
          RenderText {#text} at (400,0) size 47x19
            text run at (400,0) width 47: "medium"
        RenderText {#text} at (447,3) size 3x15
          text run at (447,3) width 3: "."
      RenderBlock {P} at (0,606) size 769x22
        RenderText {#text} at (0,0) size 534x21
          text run at (0,0) width 534: "This sentence should be large, but the last word in the sentence should be "
        RenderInline {SPAN} at (0,0) size 47x19
          RenderText {#text} at (534,2) size 47x19
            text run at (534,2) width 47: "medium"
        RenderText {#text} at (581,0) size 5x21
          text run at (581,0) width 5: "."
      RenderBlock {P} at (0,651) size 769x57
        RenderText {#text} at (0,0) size 766x28
          text run at (0,0) width 766: "This sentence should be rather large, but the last word in the sentence should be"
        RenderInline {SPAN} at (0,0) size 47x19
          RenderText {#text} at (0,35) size 47x19
            text run at (0,35) width 47: "medium"
        RenderText {#text} at (47,28) size 6x28
          text run at (47,28) width 6: "."
      RenderBlock {P} at (0,739) size 769x75
        RenderText {#text} at (0,0) size 735x73
          text run at (0,0) width 735: "This sentence should be very large, but the last word in the"
          text run at (0,37) width 242: "sentence should be "
        RenderInline {SPAN} at (0,0) size 47x19
          RenderText {#text} at (242,51) size 47x19
            text run at (242,51) width 47: "medium"
        RenderText {#text} at (289,37) size 8x36
          text run at (289,37) width 8: "."
      RenderBlock {P} at (0,861) size 769x56
        RenderText {#text} at (0,0) size 763x54
          text run at (0,0) width 763: "This sentence should be half an inch tall."
      RenderBlock {P} at (0,964) size 769x45
        RenderText {#text} at (0,0) size 671x43
          text run at (0,0) width 671: "This sentence should be one centimeter tall."
      RenderBlock {P} at (0,1046) size 769x45
        RenderText {#text} at (0,0) size 678x43
          text run at (0,0) width 678: "This sentence should be ten millimeters tall."
      RenderBlock {P} at (0,1128) size 769x29
        RenderText {#text} at (0,0) size 422x28
          text run at (0,0) width 422: "This sentence should be eighteen points tall."
      RenderBlock {P} at (0,1180) size 769x29
        RenderText {#text} at (0,0) size 492x28
          text run at (0,0) width 492: "This sentence should be one and one half picas tall."
      RenderBlock {P} at (0,1240) size 769x38
        RenderText {#text} at (0,0) size 454x36
          text run at (0,0) width 454: "This sentence should be two em tall."
      RenderBlock {P} at (0,1309) size 769x26
        RenderText {#text} at (0,0) size 326x25
          text run at (0,0) width 326: "This sentence should be three ex tall."
      RenderBlock {P} at (0,1359) size 769x30
        RenderText {#text} at (0,0) size 467x29
          text run at (0,0) width 467: "This sentence should be twenty-five pixels tall."
      RenderBlock {P} at (0,1420) size 769x38
        RenderText {#text} at (0,0) size 533x36
          text run at (0,0) width 533: "This sentence should be twice normal size."
      RenderBlock {P} at (0,1489) size 769x20
        RenderText {#text} at (0,0) size 638x19
          text run at (0,0) width 638: "This sentence should be normal size, since no negative values are allowed and therefore should be ignored."
      RenderTable {TABLE} at (0,1524) size 769x1235 [border: (1px outset #808080)]
        RenderTableSection {TBODY} at (1,1) size 767x1232
          RenderTableRow {TR} at (0,0) size 767x27
            RenderTableCell {TD} at (0,0) size 767x27 [bgcolor=#C0C0C0] [border: (1px inset #808080)] [r=0 c=0 rs=1 cs=2]
              RenderInline {STRONG} at (0,0) size 159x19
                RenderText {#text} at (4,4) size 159x19
                  text run at (4,4) width 159: "TABLE Testing Section"
          RenderTableRow {TR} at (0,27) size 767x1205
            RenderTableCell {TD} at (0,616) size 12x27 [bgcolor=#C0C0C0] [border: (1px inset #808080)] [r=1 c=0 rs=1 cs=1]
              RenderText {#text} at (4,4) size 4x19
                text run at (4,4) width 4: " "
            RenderTableCell {TD} at (12,27) size 755x1206 [border: (1px inset #808080)] [r=1 c=1 rs=1 cs=1]
              RenderBlock {P} at (4,4) size 747x19
                RenderText {#text} at (0,0) size 648x19
                  text run at (0,0) width 648: "This paragraph element is unstyled, so the size of the font in this element is the default size for this user agent."
              RenderBlock {P} at (4,39) size 747x19
                RenderText {#text} at (0,0) size 179x19
                  text run at (0,0) width 179: "This sentence has been set to "
                RenderInline {CODE} at (0,0) size 48x15
                  RenderText {#text} at (179,4) size 48x15
                    text run at (179,4) width 48: "medium"
                RenderText {#text} at (227,0) size 343x19
                  text run at (227,0) width 343: ", which may or may not be the same size as unstyled text."
              RenderBlock {P} at (4,77) size 747x23
                RenderText {#text} at (0,0) size 366x22
                  text run at (0,0) width 366: "This sentence should be larger than unstyled text."
              RenderBlock {P} at (4,118) size 747x16
                RenderText {#text} at (0,0) size 273x15
                  text run at (0,0) width 273: "This sentence should be smaller than unstyled text."
              RenderBlock {P} at (4,146) size 747x20
                RenderText {#text} at (0,6) size 303x11
                  text run at (0,6) width 303: "This sentence should be very small, but the last word in the sentence should be "
                RenderInline {SPAN} at (0,0) size 47x19
                  RenderText {#text} at (303,0) size 47x19
                    text run at (303,0) width 47: "medium"
                RenderText {#text} at (350,6) size 2x11
                  text run at (350,6) width 2: "."
              RenderBlock {P} at (4,175) size 747x20
                RenderText {#text} at (0,6) size 328x12
                  text run at (0,6) width 328: "This sentence should be rather small, but the last word in the sentence should be "
                RenderInline {SPAN} at (0,0) size 47x19
                  RenderText {#text} at (328,0) size 47x19
                    text run at (328,0) width 47: "medium"
                RenderText {#text} at (375,6) size 3x12
                  text run at (375,6) width 3: "."
              RenderBlock {P} at (4,207) size 747x20
                RenderText {#text} at (0,3) size 400x15
                  text run at (0,3) width 400: "This sentence should be small, but the last word in the sentence should be "
                RenderInline {SPAN} at (0,0) size 47x19
                  RenderText {#text} at (400,0) size 47x19
                    text run at (400,0) width 47: "medium"
                RenderText {#text} at (447,3) size 3x15
                  text run at (447,3) width 3: "."
              RenderBlock {P} at (4,244) size 747x22
                RenderText {#text} at (0,0) size 534x21
                  text run at (0,0) width 534: "This sentence should be large, but the last word in the sentence should be "
                RenderInline {SPAN} at (0,0) size 47x19
                  RenderText {#text} at (534,2) size 47x19
                    text run at (534,2) width 47: "medium"
                RenderText {#text} at (581,0) size 5x21
                  text run at (581,0) width 5: "."
              RenderBlock {P} at (4,289) size 747x57
                RenderText {#text} at (0,0) size 737x56
                  text run at (0,0) width 737: "This sentence should be rather large, but the last word in the sentence should"
                  text run at (0,28) width 29: "be "
                RenderInline {SPAN} at (0,0) size 47x19
                  RenderText {#text} at (29,35) size 47x19
                    text run at (29,35) width 47: "medium"
                RenderText {#text} at (76,28) size 6x28
                  text run at (76,28) width 6: "."
              RenderBlock {P} at (4,377) size 747x75
                RenderText {#text} at (0,0) size 735x73
                  text run at (0,0) width 735: "This sentence should be very large, but the last word in the"
                  text run at (0,37) width 242: "sentence should be "
                RenderInline {SPAN} at (0,0) size 47x19
                  RenderText {#text} at (242,51) size 47x19
                    text run at (242,51) width 47: "medium"
                RenderText {#text} at (289,37) size 8x36
                  text run at (289,37) width 8: "."
              RenderBlock {P} at (4,499) size 747x111
                RenderText {#text} at (0,0) size 681x109
                  text run at (0,0) width 681: "This sentence should be half an inch"
                  text run at (0,55) width 70: "tall."
              RenderBlock {P} at (4,657) size 747x45
                RenderText {#text} at (0,0) size 671x43
                  text run at (0,0) width 671: "This sentence should be one centimeter tall."
              RenderBlock {P} at (4,739) size 747x45
                RenderText {#text} at (0,0) size 678x43
                  text run at (0,0) width 678: "This sentence should be ten millimeters tall."
              RenderBlock {P} at (4,821) size 747x29
                RenderText {#text} at (0,0) size 422x28
                  text run at (0,0) width 422: "This sentence should be eighteen points tall."
              RenderBlock {P} at (4,873) size 747x29
                RenderText {#text} at (0,0) size 492x28
                  text run at (0,0) width 492: "This sentence should be one and one half picas tall."
              RenderBlock {P} at (4,933) size 747x38
                RenderText {#text} at (0,0) size 454x36
                  text run at (0,0) width 454: "This sentence should be two em tall."
              RenderBlock {P} at (4,1002) size 747x26
                RenderText {#text} at (0,0) size 326x25
                  text run at (0,0) width 326: "This sentence should be three ex tall."
              RenderBlock {P} at (4,1052) size 747x30
                RenderText {#text} at (0,0) size 467x29
                  text run at (0,0) width 467: "This sentence should be twenty-five pixels tall."
              RenderBlock {P} at (4,1113) size 747x38
                RenderText {#text} at (0,0) size 533x36
                  text run at (0,0) width 533: "This sentence should be twice normal size."
              RenderBlock {P} at (4,1182) size 747x20
                RenderText {#text} at (0,0) size 638x19
                  text run at (0,0) width 638: "This sentence should be normal size, since no negative values are allowed and therefore should be ignored."
