layer at (0,0) size 785x1169
  RenderView at (0,0) size 785x600
layer at (0,0) size 785x1169
  RenderBlock {HTML} at (0,0) size 785x1170
    RenderBody {BODY} at (8,8) size 769x1132
      RenderBlock {DIV} at (72,0) size 625x488 [border: (4px solid #000000)]
        RenderBlock {P} at (4,20) size 616x38
          RenderText {#text} at (0,0) size 580x38
            text run at (0,0) width 580: "Affected Browsers: Safari 2.0, Windows Internet Explorer 6"
            text run at (0,19) width 30: "SP2"
        RenderBlock {HR} at (4,74) size 616x2 [border: (1px inset #000000)]
        RenderBlock {P} at (4,92) size 616x57
          RenderText {#text} at (0,0) size 610x57
            text run at (0,0) width 610: "Bug Description: On the Affected Browsers, if a rule sets the"
            text run at (0,19) width 540: "'background-color' of an element, this color cannot be"
            text run at (0,38) width 480: "overridden by 'background:inherit' declarations."
        RenderBlock {HR} at (4,165) size 616x2 [border: (1px inset #000000)]
        RenderBlock {P} at (4,183) size 616x95
          RenderText {#text} at (0,0) size 600x57
            text run at (0,0) width 600: "Example: With the following code, the background color of H1"
            text run at (0,19) width 560: "elements stays pink, no matter what background color the"
            text run at (0,38) width 130: "parents have:"
          RenderBR {BR} at (130,38) size 0x19
          RenderText {#text} at (0,57) size 320x19
            text run at (0,57) width 50: "  H1 "
            text run at (50,57) width 270: "{ background-color: pink; }"
          RenderBR {BR} at (320,57) size 0x19
          RenderText {#text} at (0,76) size 290x19
            text run at (0,76) width 50: "  H1 "
            text run at (50,76) width 240: "{ background: inherit; }"
        RenderBlock {HR} at (4,294) size 616x2 [border: (1px inset #000000)]
        RenderBlock {P} at (4,312) size 616x57
          RenderText {#text} at (0,0) size 610x57
            text run at (0,0) width 610: "Work-around: The 'background-color' can only be overridden by"
            text run at (0,19) width 600: "another 'background-color' declaration, or by a 'background'"
            text run at (0,38) width 380: "declaration that does specify a color."
        RenderBlock {HR} at (4,385) size 616x2 [border: (1px inset #000000)]
        RenderBlock (anonymous) at (4,395) size 616x19
          RenderText {#text} at (0,0) size 376x19
            text run at (0,0) width 376: "This is in contradiction with the CSS2 specification which says:"
        RenderBlock {UL} at (4,430) size 616x38
          RenderListItem {LI} at (40,0) size 576x38
            RenderListMarker at (-18,0) size 7x19: bullet
            RenderText {#text} at (0,0) size 27x19
              text run at (0,0) width 27: "The "
            RenderInline {A} at (0,0) size 78x19 [color=#0000EE]
              RenderText {#text} at (27,0) size 78x19
                text run at (27,0) width 78: "'background'"
            RenderText {#text} at (105,0) size 534x38
              text run at (105,0) width 429: " property first sets all the individual background properties to their initial"
              text run at (0,19) width 348: "values, then assigns explicit values given in the declaration."
      RenderBlock {DIV} at (72,518) size 625x614 [color=#008000] [bgcolor=#90EE90] [border: (4px solid #008000)]
        RenderBlock (anonymous) at (4,4) size 616x19
          RenderText {#text} at (0,0) size 208x19
            text run at (0,0) width 208: "This DIV has a green background."
        RenderBlock {H1} at (61,44) size 501x157 [border: (4px solid #008000)]
          RenderText {#text} at (4,4) size 444x147
            text run at (4,4) width 441: "This header should have a green"
            text run at (4,41) width 416: "background (not pink) but the"
            text run at (4,78) width 444: "inline style rule is ignored on the"
            text run at (4,115) width 261: "Affected Browsers."
        RenderBlock (anonymous) at (4,230) size 616x20
          RenderText {#text} at (0,0) size 148x19
            text run at (0,0) width 148: "The DIV continues here."
        RenderBlock {H1} at (61,270) size 501x157 [border: (4px solid #008000)]
          RenderText {#text} at (4,4) size 449x147
            text run at (4,4) width 441: "This header should have a green"
            text run at (4,41) width 416: "background (not pink) but the"
            text run at (4,78) width 449: "!important rule is ignored on the"
            text run at (4,115) width 261: "Affected Browsers."
        RenderBlock (anonymous) at (4,456) size 616x20
          RenderText {#text} at (0,0) size 148x19
            text run at (0,0) width 148: "The DIV continues here."
        RenderBlock {H1} at (61,497) size 501x83 [color=#FF0000] [bgcolor=#FFC0CB] [border: (4px solid #FF0000)]
          RenderText {#text} at (4,4) size 483x73
            text run at (4,4) width 483: "This header has a pink background"
            text run at (4,41) width 219: "and that's good."
