layer at (0,0) size 800x600
  RenderView at (0,0) size 800x600
layer at (0,0) size 800x600
  RenderBlock {HTML} at (0,0) size 800x600
    RenderBody {BODY} at (8,8) size 784x584
      RenderBlock {DETAILS} at (0,0) size 784x38
        RenderBlock {SUMMARY} at (0,0) size 784x19
          RenderDetailsMarker {DIV} at (0,5) size 11x11: down
          RenderText {#text} at (16,0) size 55x19
            text run at (16,0) width 55: "summary"
        RenderBlock (anonymous) at (0,19) size 784x19
          RenderText {#text} at (0,0) size 150x19
            text run at (0,0) width 150: "should have no bold test."
