layer at (0,0) size 800x600
  RenderView at (0,0) size 800x600
layer at (0,0) size 800x600
  RenderBlock {HTML} at (0,0) size 800x600
    RenderBody {BODY} at (0,0) size 800x600
layer at (100,0) size 500x600
  RenderRegion {DIV} at (100,0) size 500x600
Flow Threads
  Thread with flow-name 'thread'
    layer at (0,0) size 500x600
      RenderNamedFlowThread at (0,0) size 500x600
        RenderPartObject {IFRAME} at (0,0) size 500x600
          layer at (0,0) size 500x600
            RenderView at (0,0) size 500x600
          layer at (0,0) size 500x600
            RenderBlock {HTML} at (0,0) size 500x600
              RenderBody {BODY} at (8,8) size 484x576
                RenderBlock {DIV} at (0,0) size 450x50
                  RenderBlock (floating) {DIV} at (370,10) size 70x120 [bgcolor=#FFC0CB]
                RenderBlock {P} at (0,66) size 418x506 [border: (3px solid #800000)]
                  RenderText {#text} at (6,6) size 406x114
                    text run at (6,6) width 354: "The chief difficulty Alice found at first was in managing her"
                    text run at (6,25) width 354: "flamingo: she succeeded in getting its body tucked away,"
                    text run at (6,44) width 354: "comfortably enough, under her arm, with its legs hanging"
                    text run at (6,63) width 44: "down, "
                    text run at (50,63) width 310: "but generally, just as she had got its neck nicely"
                    text run at (6,82) width 77: "straightened "
                    text run at (83,82) width 329: "out, and was going to give the hedgehog a blow with"
                    text run at (6,101) width 70: "its head, it "
                  RenderInline {I} at (0,0) size 39x19
                    RenderText {#text} at (76,101) size 39x19
                      text run at (76,101) width 39: "would"
                  RenderText {#text} at (115,101) size 406x57
                    text run at (115,101) width 297: " twist itself round and look up in her face, with"
                    text run at (6,120) width 406: "such a puzzled expression that she could not help bursting out"
                    text run at (6,139) width 406: "laughing: and when she had got its head down, and was going to"
                  RenderText {#text} at (6,158) size 406x114
                    text run at (6,158) width 406: "begin again, it was very provoking to find that the hedgehog had"
                    text run at (6,177) width 382: "unrolled itself, and was in the act of crawling away: besides all "
                    text run at (388,177) width 24: "this,"
                    text run at (6,196) width 386: "there was generally a ridge or furrow in the way wherever "
                    text run at (392,196) width 20: "she"
                    text run at (6,215) width 360: "wanted to send the hedgehog to, and, as the doubled-up "
                    text run at (366,215) width 46: "soldiers"
                    text run at (6,234) width 338: "were always getting up and walking off to other parts of "
                    text run at (344,234) width 68: "the ground,"
                    text run at (57,253) width 355: "Alice soon came to the conclusion that it was a very"
                  RenderBlock (floating) {SPAN} at (6,256) size 48x65 [bgcolor=#ADD8E6]
                  RenderText {#text} at (57,272) size 131x19
                    text run at (57,272) width 131: "difficult game indeed. "
                  RenderBR {BR} at (0,0) size 0x0
                  RenderText {#text} at (57,291) size 286x19
                    text run at (57,291) width 286: "The players all played at once without waiting "
                  RenderBlock (floating) {SPAN} at (364,294) size 48x81 [bgcolor=#90EE90]
                  RenderText {#text} at (343,291) size 354x57
                    text run at (343,291) width 17: "for"
                    text run at (57,310) width 38: "turns, "
                    text run at (95,310) width 265: "quarrelling all the while, and fighting for the"
                    text run at (6,329) width 118: "hedgehogs; and in "
                    text run at (124,329) width 112: "a very short time "
                  RenderInline {SPAN} at (0,0) size 64x19
                    RenderText {#text} at (236,329) size 64x19
                      text run at (236,329) width 64: "the Queen"
                  RenderText {#text} at (300,329) size 354x76
                    text run at (300,329) width 60: " was in a"
                    text run at (6,348) width 169: "furious passion, and went "
                    text run at (175,348) width 185: "stamping about, and shouting"
                    text run at (6,367) width 196: "\x{2018}Off with his head!\x{2019} or \x{2018}Off with "
                    text run at (202,367) width 158: "her head!\x{2019} about once in a"
                    text run at (6,386) width 47: "minute. "
                  RenderBR {BR} at (0,0) size 0x0
                  RenderText {#text} at (6,405) size 406x95
                    text run at (6,405) width 361: "Alice began to feel very uneasy: to be sure, she had not as "
                    text run at (367,405) width 45: "yet had"
                    text run at (6,424) width 336: "any dispute with the Queen, but she knew that it might "
                    text run at (342,424) width 70: "happen any"
                    text run at (6,443) width 381: "minute, \x{2018}and then,\x{2019} thought she, \x{2018}what would become of "
                    text run at (387,443) width 25: "me?"
                    text run at (6,462) width 406: "They\x{2019}re dreadfully fond of beheading people here; the great"
                    text run at (6,481) width 248: "wonder is, that there\x{2018}s any one left alive!\x{2019}"
  Regions for flow 'thread'
    RenderRegion {DIV} hasLayer
