(GraphicsLayer
  (bounds 1600.00 585.00)
  (children 1
    (GraphicsLayer
      (bounds 1600.00 585.00)
      (contentsOpaque 1)
      (children 1
        (GraphicsLayer
          (position 804.00 131.00)
          (bounds 130.00 130.00)
          (drawsContent 1)
          (repaint rects
            (rect 27.00 25.00 52.00 77.00)
            (rect 27.00 25.00 52.00 77.00)
            (rect 27.00 25.00 52.00 77.00)
          )
        )
      )
    )
  )
)

