(GraphicsLayer
  (bounds 785.00 5021.00)
  (visible rect 0.00, 0.00 785.00 x 600.00)
  (children 1
    (GraphicsLayer
      (bounds 785.00 5021.00)
      (contentsOpaque 1)
      (drawsContent 1)
      (backgroundColor #FFFFFF)
      (visible rect 0.00, 0.00 785.00 x 600.00)
      (tile cache coverage 0, 0 785 x 2048)
      (tile size 512 x 512)
      (top left tile 0, 0 tiles grid 2 x 4)
      (children 1
        (GraphicsLayer
          (visible rect 0.00, 0.00 0.00 x 0.00)
        )
      )
    )
  )
)

