
(GraphicsLayer
  (bounds 800.00 600.00)
  (children 1
    (GraphicsLayer
      (bounds 800.00 600.00)
      (contentsOpaque 1)
      (drawsContent 1)
      (children 1
        (GraphicsLayer
          (position 10.00 10.00)
          (bounds 130.00 31.00)
          (drawsContent 1)
        )
      )
    )
  )
)

