This layer should not have backing store.
This layer should not have backing store.
(GraphicsLayer
  (bounds 800.00 600.00)
  (children 1
    (GraphicsLayer
      (bounds 800.00 600.00)
      (contentsOpaque 1)
      (drawsContent 1)
      (children 1
        (GraphicsLayer
          (position 8.00 8.00)
          (bounds 342.00 242.00)
          (childrenTransform [1.00 0.00 0.00 0.00] [0.00 1.00 0.00 0.00] [0.00 0.00 1.00 -0.00] [0.00 0.00 0.00 1.00])
          (children 1
            (GraphicsLayer
              (position 21.00 40.00)
              (bounds 342.00 181.00)
              (childrenTransform [1.00 0.00 0.00 0.00] [0.00 1.00 0.00 0.00] [0.00 0.00 1.00 -0.00] [0.00 0.00 0.00 1.00])
              (children 1
                (GraphicsLayer
                  (position 31.00 50.00)
                  (bounds 100.00 100.00)
                  (contentsOpaque 1)
                  (transform [1.00 0.00 0.00 0.00] [0.00 1.00 0.00 0.00] [0.00 0.00 1.00 0.00] [0.00 0.00 1.00 1.00])
                )
              )
            )
          )
        )
      )
    )
  )
)

