layer at (0,0) size 480x360
  RenderView at (0,0) size 480x360
layer at (0,0) size 480x360
  RenderSVGRoot {svg} at (0,0) size 480x360
    RenderSVGText {text} at (206,7) size 68x23 contains 1 chunk(s)
      RenderSVGInlineText {#text} at (0,0) size 67x23
        chunk 1 (middle anchor) text run 1 at (206.50,25.00) startOffset 0 endOffset 8 width 67.00: "graphics"
    RenderSVGContainer {g} at (26,45) size 414x243 [transform={m=((1.00,0.00)(0.00,1.00)) t=(80.00,75.00)}]
      RenderSVGContainer {g} at (26,74) size 84x214 [transform={m=((1.00,0.00)(0.00,1.00)) t=(30.00,10.00)}]
        RenderSVGText {text} at (-13,-11) size 13x14 contains 1 chunk(s)
          RenderSVGInlineText {#text} at (0,0) size 13x14
            chunk 1 (end anchor) text run 1 at (-13.00,0.00) startOffset 0 endOffset 4 width 13.00: "fill"
        RenderSVGText {text} at (-35,9) size 35x14 contains 1 chunk(s)
          RenderSVGInlineText {#text} at (0,0) size 35x14
            chunk 1 (end anchor) text run 1 at (-35.00,20.00) startOffset 0 endOffset 9 width 35.00: "fill-rule"
        RenderSVGText {text} at (-30,29) size 30x14 contains 1 chunk(s)
          RenderSVGInlineText {#text} at (0,0) size 30x14
            chunk 1 (end anchor) text run 1 at (-30.00,40.00) startOffset 0 endOffset 6 width 30.00: "stroke"
        RenderSVGText {text} at (-62,49) size 62x14 contains 1 chunk(s)
          RenderSVGInlineText {#text} at (0,0) size 62x14
            chunk 1 (end anchor) text run 1 at (-62.00,60.00) startOffset 0 endOffset 12 width 62.00: "stroke-width"
        RenderSVGText {text} at (-68,69) size 68x14 contains 1 chunk(s)
          RenderSVGInlineText {#text} at (0,0) size 68x14
            chunk 1 (end anchor) text run 1 at (-68.00,80.00) startOffset 0 endOffset 14 width 68.00: "stroke-linecap"
        RenderSVGText {text} at (-69,89) size 69x14 contains 1 chunk(s)
          RenderSVGInlineText {#text} at (0,0) size 69x14
            chunk 1 (end anchor) text run 1 at (-69.00,100.00) startOffset 0 endOffset 15 width 69.00: "stroke-linejoin"
        RenderSVGText {text} at (-81,109) size 81x14 contains 1 chunk(s)
          RenderSVGInlineText {#text} at (0,0) size 81x14
            chunk 1 (end anchor) text run 1 at (-81.00,120.00) startOffset 0 endOffset 17 width 81.00: "stroke-miterlimit"
        RenderSVGText {text} at (-84,129) size 84x14 contains 1 chunk(s)
          RenderSVGInlineText {#text} at (0,0) size 84x14
            chunk 1 (end anchor) text run 1 at (-84.00,140.00) startOffset 0 endOffset 17 width 84.00: "stroke-dashoffset"
        RenderSVGText {text} at (-36,149) size 36x14 contains 1 chunk(s)
          RenderSVGInlineText {#text} at (0,0) size 36x14
            chunk 1 (end anchor) text run 1 at (-36.00,160.00) startOffset 0 endOffset 7 width 36.00: "display"
        RenderSVGText {text} at (-43,169) size 43x14 contains 1 chunk(s)
          RenderSVGInlineText {#text} at (0,0) size 43x14
            chunk 1 (end anchor) text run 1 at (-43.00,180.00) startOffset 0 endOffset 10 width 43.00: "visibility"
        RenderSVGText {text} at (-24,189) size 24x14 contains 1 chunk(s)
          RenderSVGInlineText {#text} at (0,0) size 24x14
            chunk 1 (end anchor) text run 1 at (-24.00,200.00) startOffset 0 endOffset 5 width 24.00: "color"
      RenderSVGContainer {g} at (168,45) size 248x17 [transform={m=((1.00,0.00)(0.00,1.00)) t=(90.00,-20.00)}]
        RenderSVGText {text} at (-2,-10) size 44x17 contains 1 chunk(s)
          RenderSVGInlineText {#text} at (0,0) size 43x17
            chunk 1 (middle anchor) text run 1 at (-1.50,3.00) startOffset 0 endOffset 7 width 43.00: "element"
        RenderSVGText {text} at (118,-10) size 24x17 contains 1 chunk(s)
          RenderSVGInlineText {#text} at (0,0) size 23x17
            chunk 1 (middle anchor) text run 1 at (118.50,3.00) startOffset 0 endOffset 3 width 23.00: "<g>"
        RenderSVGText {text} at (224,-10) size 22x17 contains 1 chunk(s)
          RenderSVGInlineText {#text} at (0,0) size 22x17
            chunk 1 (middle anchor) text run 1 at (224.00,3.00) startOffset 0 endOffset 3 width 22.00: "<a>"
      RenderSVGContainer {g} at (155,69) size 285x214 [transform={m=((1.00,0.00)(0.00,1.00)) t=(80.00,0.00)}]
        RenderSVGContainer {g} at (170,69) size 258x14
          RenderSVGHiddenContainer {defs} at (0,0) size 0x0
            RenderSVGContainer {g} at (170,69) size 38x4
              RenderSVGRect {rect} at (170,69) size 8x4 [fill={[type=SOLID] [color=#CC0066]}] [x=10.00] [y=-6.00] [width=8.00] [height=4.00]
              RenderSVGRect {rect} at (185,69) size 8x4 [transform={m=((1.00,0.00)(0.00,1.00)) t=(15.00,0.00)}] [fill={[type=SOLID] [color=#E65233]}] [x=10.00] [y=-6.00] [width=8.00] [height=4.00]
              RenderSVGRect {rect} at (200,69) size 8x4 [transform={m=((1.00,0.00)(0.00,1.00)) t=(30.00,0.00)}] [fill={[type=SOLID] [color=#FFA500]}] [x=10.00] [y=-6.00] [width=8.00] [height=4.00]
          RenderSVGContainer {use} at (170,69) size 38x4
            RenderSVGContainer {g} at (170,69) size 38x4
              RenderSVGRect {rect} at (170,69) size 8x4 [fill={[type=SOLID] [color=#CC0066]}] [x=10.00] [y=-6.00] [width=8.00] [height=4.00]
              RenderSVGRect {rect} at (185,69) size 8x4 [transform={m=((1.00,0.00)(0.00,1.00)) t=(15.00,0.00)}] [fill={[type=SOLID] [color=#E65233]}] [x=10.00] [y=-6.00] [width=8.00] [height=4.00]
              RenderSVGRect {rect} at (200,69) size 8x4 [transform={m=((1.00,0.00)(0.00,1.00)) t=(30.00,0.00)}] [fill={[type=SOLID] [color=#FFA500]}] [x=10.00] [y=-6.00] [width=8.00] [height=4.00]
          RenderSVGContainer {use} at (280,69) size 38x4 [transform={m=((1.00,0.00)(0.00,1.00)) t=(110.00,0.00)}]
            RenderSVGContainer {g} at (280,69) size 38x4
              RenderSVGRect {rect} at (280,69) size 8x4 [fill={[type=SOLID] [color=#CC0066]}] [x=10.00] [y=-6.00] [width=8.00] [height=4.00]
              RenderSVGRect {rect} at (295,69) size 8x4 [transform={m=((1.00,0.00)(0.00,1.00)) t=(15.00,0.00)}] [fill={[type=SOLID] [color=#E65233]}] [x=10.00] [y=-6.00] [width=8.00] [height=4.00]
              RenderSVGRect {rect} at (310,69) size 8x4 [transform={m=((1.00,0.00)(0.00,1.00)) t=(30.00,0.00)}] [fill={[type=SOLID] [color=#FFA500]}] [x=10.00] [y=-6.00] [width=8.00] [height=4.00]
          RenderSVGContainer {use} at (390,69) size 38x4 [transform={m=((1.00,0.00)(0.00,1.00)) t=(220.00,0.00)}]
            RenderSVGContainer {g} at (390,69) size 38x4
              RenderSVGRect {rect} at (390,69) size 8x4 [fill={[type=SOLID] [color=#CC0066]}] [x=10.00] [y=-6.00] [width=8.00] [height=4.00]
              RenderSVGRect {rect} at (405,69) size 8x4 [transform={m=((1.00,0.00)(0.00,1.00)) t=(15.00,0.00)}] [fill={[type=SOLID] [color=#E65233]}] [x=10.00] [y=-6.00] [width=8.00] [height=4.00]
              RenderSVGRect {rect} at (420,69) size 8x4 [transform={m=((1.00,0.00)(0.00,1.00)) t=(30.00,0.00)}] [fill={[type=SOLID] [color=#FFA500]}] [x=10.00] [y=-6.00] [width=8.00] [height=4.00]
          RenderSVGRect {rect} at (170,75) size 8x8 [fill={[type=SOLID] [color=#CC0066]}] [x=10.00] [y=0.00] [width=8.00] [height=8.00]
          RenderSVGContainer {g} at (280,75) size 8x8 [transform={m=((1.00,0.00)(0.00,1.00)) t=(110.00,0.00)}]
            RenderSVGRect {rect} at (280,75) size 8x8 [fill={[type=SOLID] [color=#CC0066]}] [x=10.00] [y=0.00] [width=8.00] [height=8.00]
          RenderSVGContainer {a} at (390,75) size 8x8 [transform={m=((1.00,0.00)(0.00,1.00)) t=(220.00,0.00)}]
            RenderSVGRect {rect} at (390,75) size 8x8 [fill={[type=SOLID] [color=#CC0066]}] [x=10.00] [y=0.00] [width=8.00] [height=8.00]
        RenderSVGContainer {g} at (163,90) size 272x22 [transform={m=((1.00,0.00)(0.00,1.00)) t=(5.00,15.00)}]
          RenderSVGHiddenContainer {defs} at (0,0) size 0x0
            RenderSVGContainer {g} at (165,92) size 50x18
              RenderSVGPath {polyline} at (165,92) size 20x18 [fill={[type=SOLID] [color=#CCCCCC]}] [points="20 10 0 10 15 20 10 2 5 20 20 10"]
              RenderSVGPath {polyline} at (195,92) size 20x18 [transform={m=((1.00,0.00)(0.00,1.00)) t=(30.00,0.00)}] [fill={[type=SOLID] [color=#CCCCCC] [fill rule=EVEN-ODD]}] [points="20 10 0 10 15 20 10 2 5 20 20 10"]
          RenderSVGContainer {use} at (165,92) size 50x18
            RenderSVGContainer {g} at (165,92) size 50x18
              RenderSVGPath {polyline} at (165,92) size 20x18 [fill={[type=SOLID] [color=#CCCCCC]}] [points="20 10 0 10 15 20 10 2 5 20 20 10"]
              RenderSVGPath {polyline} at (195,92) size 20x18 [transform={m=((1.00,0.00)(0.00,1.00)) t=(30.00,0.00)}] [fill={[type=SOLID] [color=#CCCCCC] [fill rule=EVEN-ODD]}] [points="20 10 0 10 15 20 10 2 5 20 20 10"]
          RenderSVGContainer {use} at (275,92) size 50x18 [transform={m=((1.00,0.00)(0.00,1.00)) t=(110.00,0.00)}]
            RenderSVGContainer {g} at (275,92) size 50x18
              RenderSVGPath {polyline} at (275,92) size 20x18 [fill={[type=SOLID] [color=#CCCCCC]}] [points="20 10 0 10 15 20 10 2 5 20 20 10"]
              RenderSVGPath {polyline} at (305,92) size 20x18 [transform={m=((1.00,0.00)(0.00,1.00)) t=(30.00,0.00)}] [fill={[type=SOLID] [color=#CCCCCC] [fill rule=EVEN-ODD]}] [points="20 10 0 10 15 20 10 2 5 20 20 10"]
          RenderSVGContainer {use} at (385,92) size 50x18 [transform={m=((1.00,0.00)(0.00,1.00)) t=(220.00,0.00)}]
            RenderSVGContainer {g} at (385,92) size 50x18
              RenderSVGPath {polyline} at (385,92) size 20x18 [fill={[type=SOLID] [color=#CCCCCC]}] [points="20 10 0 10 15 20 10 2 5 20 20 10"]
              RenderSVGPath {polyline} at (415,92) size 20x18 [transform={m=((1.00,0.00)(0.00,1.00)) t=(30.00,0.00)}] [fill={[type=SOLID] [color=#CCCCCC] [fill rule=EVEN-ODD]}] [points="20 10 0 10 15 20 10 2 5 20 20 10"]
          RenderSVGPath {polyline} at (163,90) size 24x22 [stroke={[type=SOLID] [color=#CC0066]}] [fill={[type=SOLID] [color=#CC0066] [fill rule=EVEN-ODD]}] [points="20 10 0 10 15 20 10 2 5 20 20 10"]
          RenderSVGContainer {g} at (273,90) size 24x22 [transform={m=((1.00,0.00)(0.00,1.00)) t=(110.00,0.00)}]
            RenderSVGPath {polyline} at (273,90) size 24x22 [stroke={[type=SOLID] [color=#CC0066]}] [fill={[type=SOLID] [color=#CC0066] [fill rule=EVEN-ODD]}] [points="20 10 0 10 15 20 10 2 5 20 20 10"]
          RenderSVGContainer {a} at (383,90) size 24x22 [transform={m=((1.00,0.00)(0.00,1.00)) t=(220.00,0.00)}]
            RenderSVGPath {polyline} at (383,90) size 24x22 [stroke={[type=SOLID] [color=#CC0066]}] [fill={[type=SOLID] [color=#CC0066] [fill rule=EVEN-ODD]}] [points="20 10 0 10 15 20 10 2 5 20 20 10"]
        RenderSVGContainer {g} at (168,118) size 262x12 [transform={m=((1.00,0.00)(0.00,1.00)) t=(0.00,45.00)}]
          RenderSVGHiddenContainer {defs} at (0,0) size 0x0
            RenderSVGContainer {g} at (168,118) size 42x12
              RenderSVGRect {rect} at (168,118) size 12x12 [stroke={[type=SOLID] [color=#CC0066] [stroke width=4.00]}] [x=10.00] [y=0.00] [width=8.00] [height=8.00]
              RenderSVGRect {rect} at (183,118) size 12x12 [transform={m=((1.00,0.00)(0.00,1.00)) t=(15.00,0.00)}] [stroke={[type=SOLID] [color=#E65233] [stroke width=4.00]}] [x=10.00] [y=0.00] [width=8.00] [height=8.00]
              RenderSVGRect {rect} at (198,118) size 12x12 [transform={m=((1.00,0.00)(0.00,1.00)) t=(30.00,0.00)}] [stroke={[type=SOLID] [color=#FFA500] [stroke width=4.00]}] [x=10.00] [y=0.00] [width=8.00] [height=8.00]
          RenderSVGContainer {use} at (168,118) size 42x12
            RenderSVGContainer {g} at (168,118) size 42x12
              RenderSVGRect {rect} at (168,118) size 12x12 [stroke={[type=SOLID] [color=#CC0066] [stroke width=4.00]}] [x=10.00] [y=0.00] [width=8.00] [height=8.00]
              RenderSVGRect {rect} at (183,118) size 12x12 [transform={m=((1.00,0.00)(0.00,1.00)) t=(15.00,0.00)}] [stroke={[type=SOLID] [color=#E65233] [stroke width=4.00]}] [x=10.00] [y=0.00] [width=8.00] [height=8.00]
              RenderSVGRect {rect} at (198,118) size 12x12 [transform={m=((1.00,0.00)(0.00,1.00)) t=(30.00,0.00)}] [stroke={[type=SOLID] [color=#FFA500] [stroke width=4.00]}] [x=10.00] [y=0.00] [width=8.00] [height=8.00]
          RenderSVGContainer {use} at (278,118) size 42x12 [transform={m=((1.00,0.00)(0.00,1.00)) t=(110.00,0.00)}]
            RenderSVGContainer {g} at (278,118) size 42x12
              RenderSVGRect {rect} at (278,118) size 12x12 [stroke={[type=SOLID] [color=#CC0066] [stroke width=4.00]}] [x=10.00] [y=0.00] [width=8.00] [height=8.00]
              RenderSVGRect {rect} at (293,118) size 12x12 [transform={m=((1.00,0.00)(0.00,1.00)) t=(15.00,0.00)}] [stroke={[type=SOLID] [color=#E65233] [stroke width=4.00]}] [x=10.00] [y=0.00] [width=8.00] [height=8.00]
              RenderSVGRect {rect} at (308,118) size 12x12 [transform={m=((1.00,0.00)(0.00,1.00)) t=(30.00,0.00)}] [stroke={[type=SOLID] [color=#FFA500] [stroke width=4.00]}] [x=10.00] [y=0.00] [width=8.00] [height=8.00]
          RenderSVGContainer {use} at (388,118) size 42x12 [transform={m=((1.00,0.00)(0.00,1.00)) t=(220.00,0.00)}]
            RenderSVGContainer {g} at (388,118) size 42x12
              RenderSVGRect {rect} at (388,118) size 12x12 [stroke={[type=SOLID] [color=#CC0066] [stroke width=4.00]}] [x=10.00] [y=0.00] [width=8.00] [height=8.00]
              RenderSVGRect {rect} at (403,118) size 12x12 [transform={m=((1.00,0.00)(0.00,1.00)) t=(15.00,0.00)}] [stroke={[type=SOLID] [color=#E65233] [stroke width=4.00]}] [x=10.00] [y=0.00] [width=8.00] [height=8.00]
              RenderSVGRect {rect} at (418,118) size 12x12 [transform={m=((1.00,0.00)(0.00,1.00)) t=(30.00,0.00)}] [stroke={[type=SOLID] [color=#FFA500] [stroke width=4.00]}] [x=10.00] [y=0.00] [width=8.00] [height=8.00]
          RenderSVGRect {rect} at (168,118) size 12x12 [stroke={[type=SOLID] [color=#CC0066] [stroke width=3.00]}] [x=10.00] [y=0.00] [width=8.00] [height=8.00]
          RenderSVGContainer {g} at (278,118) size 12x12 [transform={m=((1.00,0.00)(0.00,1.00)) t=(110.00,0.00)}]
            RenderSVGRect {rect} at (278,118) size 12x12 [stroke={[type=SOLID] [color=#CC0066] [stroke width=3.00]}] [x=10.00] [y=0.00] [width=8.00] [height=8.00]
          RenderSVGContainer {a} at (388,118) size 12x12 [transform={m=((1.00,0.00)(0.00,1.00)) t=(220.00,0.00)}]
            RenderSVGRect {rect} at (388,118) size 12x12 [stroke={[type=SOLID] [color=#CC0066] [stroke width=3.00]}] [x=10.00] [y=0.00] [width=8.00] [height=8.00]
        RenderSVGContainer {g} at (170,135) size 260x9 [transform={m=((1.00,0.00)(0.00,1.00)) t=(0.00,60.00)}]
          RenderSVGHiddenContainer {defs} at (0,0) size 0x0
            RenderSVGContainer {g} at (170,135) size 40x6
              RenderSVGPath {line} at (170,137) size 10x2 [stroke={[type=SOLID] [color=#808080]}] [fill={[type=SOLID] [color=#CC0066]}] [x1=10.00] [y1=3.00] [x2=20.00] [y2=3.00]
              RenderSVGPath {line} at (200,135) size 10x6 [transform={m=((1.00,0.00)(0.00,1.00)) t=(30.00,0.00)}] [stroke={[type=SOLID] [color=#808080] [stroke width=5.00]}] [fill={[type=SOLID] [color=#CC0066]}] [x1=10.00] [y1=3.00] [x2=20.00] [y2=3.00]
          RenderSVGContainer {use} at (170,135) size 40x6
            RenderSVGContainer {g} at (170,135) size 40x6
              RenderSVGPath {line} at (170,137) size 10x2 [stroke={[type=SOLID] [color=#808080]}] [fill={[type=SOLID] [color=#CC0066]}] [x1=10.00] [y1=3.00] [x2=20.00] [y2=3.00]
              RenderSVGPath {line} at (200,135) size 10x6 [transform={m=((1.00,0.00)(0.00,1.00)) t=(30.00,0.00)}] [stroke={[type=SOLID] [color=#808080] [stroke width=5.00]}] [fill={[type=SOLID] [color=#CC0066]}] [x1=10.00] [y1=3.00] [x2=20.00] [y2=3.00]
          RenderSVGContainer {use} at (280,135) size 40x6 [transform={m=((1.00,0.00)(0.00,1.00)) t=(110.00,0.00)}]
            RenderSVGContainer {g} at (280,135) size 40x6
              RenderSVGPath {line} at (280,137) size 10x2 [stroke={[type=SOLID] [color=#808080]}] [fill={[type=SOLID] [color=#CC0066]}] [x1=10.00] [y1=3.00] [x2=20.00] [y2=3.00]
              RenderSVGPath {line} at (310,135) size 10x6 [transform={m=((1.00,0.00)(0.00,1.00)) t=(30.00,0.00)}] [stroke={[type=SOLID] [color=#808080] [stroke width=5.00]}] [fill={[type=SOLID] [color=#CC0066]}] [x1=10.00] [y1=3.00] [x2=20.00] [y2=3.00]
          RenderSVGContainer {use} at (390,135) size 40x6 [transform={m=((1.00,0.00)(0.00,1.00)) t=(220.00,0.00)}]
            RenderSVGContainer {g} at (390,135) size 40x6
              RenderSVGPath {line} at (390,137) size 10x2 [stroke={[type=SOLID] [color=#808080]}] [fill={[type=SOLID] [color=#CC0066]}] [x1=10.00] [y1=3.00] [x2=20.00] [y2=3.00]
              RenderSVGPath {line} at (420,135) size 10x6 [transform={m=((1.00,0.00)(0.00,1.00)) t=(30.00,0.00)}] [stroke={[type=SOLID] [color=#808080] [stroke width=5.00]}] [fill={[type=SOLID] [color=#CC0066]}] [x1=10.00] [y1=3.00] [x2=20.00] [y2=3.00]
          RenderSVGPath {line} at (170,142) size 10x2 [stroke={[type=SOLID] [color=#808080]}] [fill={[type=SOLID] [color=#CC0066]}] [x1=10.00] [y1=8.00] [x2=20.00] [y2=8.00]
          RenderSVGContainer {g} at (280,142) size 10x2 [transform={m=((1.00,0.00)(0.00,1.00)) t=(110.00,0.00)}]
            RenderSVGPath {line} at (280,142) size 10x2 [stroke={[type=SOLID] [color=#808080]}] [fill={[type=SOLID] [color=#CC0066]}] [x1=10.00] [y1=8.00] [x2=20.00] [y2=8.00]
          RenderSVGContainer {a} at (390,142) size 10x2 [transform={m=((1.00,0.00)(0.00,1.00)) t=(220.00,0.00)}]
            RenderSVGPath {line} at (390,142) size 10x2 [stroke={[type=SOLID] [color=#808080]}] [fill={[type=SOLID] [color=#CC0066]}] [x1=10.00] [y1=8.00] [x2=20.00] [y2=8.00]
        RenderSVGContainer {g} at (170,157) size 258x12 [transform={m=((1.00,0.00)(0.00,1.00)) t=(0.00,80.00)}]
          RenderSVGHiddenContainer {defs} at (0,0) size 0x0
            RenderSVGContainer {g} at (170,157) size 38x12
              RenderSVGPath {line} at (170,157) size 2x12 [stroke={[type=SOLID] [color=#CCCCCC] [stroke width=12.00]}] [fill={[type=SOLID] [color=#CC0066]}] [x1=10.00] [y1=8.00] [x2=12.00] [y2=8.00]
              RenderSVGPath {line} at (194,157) size 14x12 [transform={m=((1.00,0.00)(0.00,1.00)) t=(30.00,0.00)}] [stroke={[type=SOLID] [color=#CCCCCC] [stroke width=12.00] [line cap=ROUND]}] [fill={[type=SOLID] [color=#CC0066]}] [x1=10.00] [y1=8.00] [x2=12.00] [y2=8.00]
          RenderSVGContainer {use} at (170,157) size 38x12
            RenderSVGContainer {g} at (170,157) size 38x12
              RenderSVGPath {line} at (170,157) size 2x12 [stroke={[type=SOLID] [color=#CCCCCC] [stroke width=12.00]}] [fill={[type=SOLID] [color=#CC0066]}] [x1=10.00] [y1=8.00] [x2=12.00] [y2=8.00]
              RenderSVGPath {line} at (194,157) size 14x12 [transform={m=((1.00,0.00)(0.00,1.00)) t=(30.00,0.00)}] [stroke={[type=SOLID] [color=#CCCCCC] [stroke width=12.00] [line cap=ROUND]}] [fill={[type=SOLID] [color=#CC0066]}] [x1=10.00] [y1=8.00] [x2=12.00] [y2=8.00]
          RenderSVGContainer {use} at (280,157) size 38x12 [transform={m=((1.00,0.00)(0.00,1.00)) t=(110.00,0.00)}]
            RenderSVGContainer {g} at (280,157) size 38x12
              RenderSVGPath {line} at (280,157) size 2x12 [stroke={[type=SOLID] [color=#CCCCCC] [stroke width=12.00]}] [fill={[type=SOLID] [color=#CC0066]}] [x1=10.00] [y1=8.00] [x2=12.00] [y2=8.00]
              RenderSVGPath {line} at (304,157) size 14x12 [transform={m=((1.00,0.00)(0.00,1.00)) t=(30.00,0.00)}] [stroke={[type=SOLID] [color=#CCCCCC] [stroke width=12.00] [line cap=ROUND]}] [fill={[type=SOLID] [color=#CC0066]}] [x1=10.00] [y1=8.00] [x2=12.00] [y2=8.00]
          RenderSVGContainer {use} at (390,157) size 38x12 [transform={m=((1.00,0.00)(0.00,1.00)) t=(220.00,0.00)}]
            RenderSVGContainer {g} at (390,157) size 38x12
              RenderSVGPath {line} at (390,157) size 2x12 [stroke={[type=SOLID] [color=#CCCCCC] [stroke width=12.00]}] [fill={[type=SOLID] [color=#CC0066]}] [x1=10.00] [y1=8.00] [x2=12.00] [y2=8.00]
              RenderSVGPath {line} at (414,157) size 14x12 [transform={m=((1.00,0.00)(0.00,1.00)) t=(30.00,0.00)}] [stroke={[type=SOLID] [color=#CCCCCC] [stroke width=12.00] [line cap=ROUND]}] [fill={[type=SOLID] [color=#CC0066]}] [x1=10.00] [y1=8.00] [x2=12.00] [y2=8.00]
          RenderSVGPath {line} at (170,157) size 2x12 [stroke={[type=SOLID] [color=#CC0066] [stroke width=12.00]}] [fill={[type=SOLID] [color=#CC0066]}] [x1=10.00] [y1=8.00] [x2=12.00] [y2=8.00]
          RenderSVGContainer {g} at (280,157) size 2x12 [transform={m=((1.00,0.00)(0.00,1.00)) t=(110.00,0.00)}]
            RenderSVGPath {line} at (280,157) size 2x12 [stroke={[type=SOLID] [color=#CC0066] [stroke width=12.00]}] [fill={[type=SOLID] [color=#CC0066]}] [x1=10.00] [y1=8.00] [x2=12.00] [y2=8.00]
          RenderSVGContainer {a} at (390,157) size 2x12 [transform={m=((1.00,0.00)(0.00,1.00)) t=(220.00,0.00)}]
            RenderSVGPath {line} at (390,157) size 2x12 [stroke={[type=SOLID] [color=#CC0066] [stroke width=12.00]}] [fill={[type=SOLID] [color=#CC0066]}] [x1=10.00] [y1=8.00] [x2=12.00] [y2=8.00]
        RenderSVGContainer {g} at (169,175) size 267x10 [transform={m=((1.00,0.00)(0.00,1.00)) t=(5.00,100.00)}]
          RenderSVGHiddenContainer {defs} at (0,0) size 0x0
            RenderSVGContainer {g} at (169,175) size 47x10
              RenderSVGPath {polyline} at (169,175) size 24x10 [stroke={[type=SOLID] [color=#CCCCCC] [stroke width=3.00] [miter limit=10.00]}] [points="5 2 20 5 5 8"]
              RenderSVGPath {polyline} at (199,175) size 17x10 [transform={m=((1.00,0.00)(0.00,1.00)) t=(30.00,0.00)}] [stroke={[type=SOLID] [color=#CCCCCC] [stroke width=3.00] [miter limit=10.00] [line join=BEVEL]}] [points="5 2 20 5 5 8"]
          RenderSVGContainer {use} at (169,175) size 47x10
            RenderSVGContainer {g} at (169,175) size 47x10
              RenderSVGPath {polyline} at (169,175) size 24x10 [stroke={[type=SOLID] [color=#CCCCCC] [stroke width=3.00] [miter limit=10.00]}] [points="5 2 20 5 5 8"]
              RenderSVGPath {polyline} at (199,175) size 17x10 [transform={m=((1.00,0.00)(0.00,1.00)) t=(30.00,0.00)}] [stroke={[type=SOLID] [color=#CCCCCC] [stroke width=3.00] [miter limit=10.00] [line join=BEVEL]}] [points="5 2 20 5 5 8"]
          RenderSVGContainer {use} at (279,175) size 47x10 [transform={m=((1.00,0.00)(0.00,1.00)) t=(110.00,0.00)}]
            RenderSVGContainer {g} at (279,175) size 47x10
              RenderSVGPath {polyline} at (279,175) size 24x10 [stroke={[type=SOLID] [color=#CCCCCC] [stroke width=3.00] [miter limit=10.00]}] [points="5 2 20 5 5 8"]
              RenderSVGPath {polyline} at (309,175) size 17x10 [transform={m=((1.00,0.00)(0.00,1.00)) t=(30.00,0.00)}] [stroke={[type=SOLID] [color=#CCCCCC] [stroke width=3.00] [miter limit=10.00] [line join=BEVEL]}] [points="5 2 20 5 5 8"]
          RenderSVGContainer {use} at (389,175) size 47x10 [transform={m=((1.00,0.00)(0.00,1.00)) t=(220.00,0.00)}]
            RenderSVGContainer {g} at (389,175) size 47x10
              RenderSVGPath {polyline} at (389,175) size 24x10 [stroke={[type=SOLID] [color=#CCCCCC] [stroke width=3.00] [miter limit=10.00]}] [points="5 2 20 5 5 8"]
              RenderSVGPath {polyline} at (419,175) size 17x10 [transform={m=((1.00,0.00)(0.00,1.00)) t=(30.00,0.00)}] [stroke={[type=SOLID] [color=#CCCCCC] [stroke width=3.00] [miter limit=10.00] [line join=BEVEL]}] [points="5 2 20 5 5 8"]
          RenderSVGPath {polyline} at (169,175) size 24x10 [stroke={[type=SOLID] [color=#CC0066] [stroke width=3.00] [miter limit=10.00]}] [points="5 2 20 5 5 8"]
          RenderSVGContainer {g} at (279,175) size 24x10 [transform={m=((1.00,0.00)(0.00,1.00)) t=(110.00,0.00)}]
            RenderSVGPath {polyline} at (279,175) size 24x10 [stroke={[type=SOLID] [color=#CC0066] [stroke width=3.00] [miter limit=10.00]}] [points="5 2 20 5 5 8"]
          RenderSVGContainer {a} at (389,175) size 24x10 [transform={m=((1.00,0.00)(0.00,1.00)) t=(220.00,0.00)}]
            RenderSVGPath {polyline} at (389,175) size 24x10 [stroke={[type=SOLID] [color=#CC0066] [stroke width=3.00] [miter limit=10.00]}] [points="5 2 20 5 5 8"]
        RenderSVGContainer {g} at (169,193) size 271x14 [transform={m=((1.00,0.00)(0.00,1.00)) t=(5.00,120.00)}]
          RenderSVGHiddenContainer {defs} at (0,0) size 0x0
            RenderSVGContainer {g} at (169,193) size 51x14
              RenderSVGPath {polyline} at (169,193) size 17x14 [stroke={[type=SOLID] [color=#CCCCCC] [stroke width=3.00] [miter limit=1.00]}] [points="5 0 20 5 5 10"]
              RenderSVGPath {polyline} at (199,193) size 21x14 [transform={m=((1.00,0.00)(0.00,1.00)) t=(30.00,0.00)}] [stroke={[type=SOLID] [color=#CCCCCC] [stroke width=3.00] [miter limit=10.00]}] [points="5 0 20 5 5 10"]
          RenderSVGContainer {use} at (169,193) size 51x14
            RenderSVGContainer {g} at (169,193) size 51x14
              RenderSVGPath {polyline} at (169,193) size 17x14 [stroke={[type=SOLID] [color=#CCCCCC] [stroke width=3.00] [miter limit=1.00]}] [points="5 0 20 5 5 10"]
              RenderSVGPath {polyline} at (199,193) size 21x14 [transform={m=((1.00,0.00)(0.00,1.00)) t=(30.00,0.00)}] [stroke={[type=SOLID] [color=#CCCCCC] [stroke width=3.00] [miter limit=10.00]}] [points="5 0 20 5 5 10"]
          RenderSVGContainer {use} at (279,193) size 51x14 [transform={m=((1.00,0.00)(0.00,1.00)) t=(110.00,0.00)}]
            RenderSVGContainer {g} at (279,193) size 51x14
              RenderSVGPath {polyline} at (279,193) size 17x14 [stroke={[type=SOLID] [color=#CCCCCC] [stroke width=3.00] [miter limit=1.00]}] [points="5 0 20 5 5 10"]
              RenderSVGPath {polyline} at (309,193) size 21x14 [transform={m=((1.00,0.00)(0.00,1.00)) t=(30.00,0.00)}] [stroke={[type=SOLID] [color=#CCCCCC] [stroke width=3.00] [miter limit=10.00]}] [points="5 0 20 5 5 10"]
          RenderSVGContainer {use} at (389,193) size 51x14 [transform={m=((1.00,0.00)(0.00,1.00)) t=(220.00,0.00)}]
            RenderSVGContainer {g} at (389,193) size 51x14
              RenderSVGPath {polyline} at (389,193) size 17x14 [stroke={[type=SOLID] [color=#CCCCCC] [stroke width=3.00] [miter limit=1.00]}] [points="5 0 20 5 5 10"]
              RenderSVGPath {polyline} at (419,193) size 21x14 [transform={m=((1.00,0.00)(0.00,1.00)) t=(30.00,0.00)}] [stroke={[type=SOLID] [color=#CCCCCC] [stroke width=3.00] [miter limit=10.00]}] [points="5 0 20 5 5 10"]
          RenderSVGPath {polyline} at (169,193) size 17x14 [stroke={[type=SOLID] [color=#CC0066] [stroke width=3.00] [miter limit=1.00]}] [points="5 0 20 5 5 10"]
          RenderSVGContainer {g} at (279,193) size 17x14 [transform={m=((1.00,0.00)(0.00,1.00)) t=(110.00,0.00)}]
            RenderSVGPath {polyline} at (279,193) size 17x14 [stroke={[type=SOLID] [color=#CC0066] [stroke width=3.00] [miter limit=1.00]}] [points="5 0 20 5 5 10"]
          RenderSVGContainer {a} at (389,193) size 17x14 [transform={m=((1.00,0.00)(0.00,1.00)) t=(220.00,0.00)}]
            RenderSVGPath {polyline} at (389,193) size 17x14 [stroke={[type=SOLID] [color=#CC0066] [stroke width=3.00] [miter limit=1.00]}] [points="5 0 20 5 5 10"]
        RenderSVGContainer {g} at (155,218) size 282x4 [transform={m=((1.00,0.00)(0.00,1.00)) t=(-5.00,145.00)}]
          RenderSVGHiddenContainer {defs} at (0,0) size 0x0
            RenderSVGContainer {g} at (155,218) size 62x4
              RenderSVGPath {line} at (155,218) size 25x4 [stroke={[type=SOLID] [color=#CCCCCC] [stroke width=3.00] [dash array={3.00, 4.00, 5.00}]}] [fill={[type=SOLID] [color=#CC0066]}] [x1=0.00] [y1=0.00] [x2=25.00] [y2=0.00]
              RenderSVGPath {line} at (196,218) size 21x4 [transform={m=((1.00,0.00)(0.00,1.00)) t=(40.00,0.00)}] [stroke={[type=SOLID] [color=#CCCCCC] [stroke width=3.00] [dash offset=5.50] [dash array={3.00, 4.00, 5.00}]}] [fill={[type=SOLID] [color=#CC0066]}] [x1=0.00] [y1=0.00] [x2=25.00] [y2=0.00]
          RenderSVGContainer {use} at (155,218) size 62x4
            RenderSVGContainer {g} at (155,218) size 62x4
              RenderSVGPath {line} at (155,218) size 25x4 [stroke={[type=SOLID] [color=#CCCCCC] [stroke width=3.00] [dash array={3.00, 4.00, 5.00}]}] [fill={[type=SOLID] [color=#CC0066]}] [x1=0.00] [y1=0.00] [x2=25.00] [y2=0.00]
              RenderSVGPath {line} at (196,218) size 21x4 [transform={m=((1.00,0.00)(0.00,1.00)) t=(40.00,0.00)}] [stroke={[type=SOLID] [color=#CCCCCC] [stroke width=3.00] [dash offset=5.50] [dash array={3.00, 4.00, 5.00}]}] [fill={[type=SOLID] [color=#CC0066]}] [x1=0.00] [y1=0.00] [x2=25.00] [y2=0.00]
          RenderSVGContainer {use} at (265,218) size 62x4 [transform={m=((1.00,0.00)(0.00,1.00)) t=(110.00,0.00)}]
            RenderSVGContainer {g} at (265,218) size 62x4
              RenderSVGPath {line} at (265,218) size 25x4 [stroke={[type=SOLID] [color=#CCCCCC] [stroke width=3.00] [dash array={3.00, 4.00, 5.00}]}] [fill={[type=SOLID] [color=#CC0066]}] [x1=0.00] [y1=0.00] [x2=25.00] [y2=0.00]
              RenderSVGPath {line} at (306,218) size 21x4 [transform={m=((1.00,0.00)(0.00,1.00)) t=(40.00,0.00)}] [stroke={[type=SOLID] [color=#CCCCCC] [stroke width=3.00] [dash offset=5.50] [dash array={3.00, 4.00, 5.00}]}] [fill={[type=SOLID] [color=#CC0066]}] [x1=0.00] [y1=0.00] [x2=25.00] [y2=0.00]
          RenderSVGContainer {use} at (375,218) size 62x4 [transform={m=((1.00,0.00)(0.00,1.00)) t=(220.00,0.00)}]
            RenderSVGContainer {g} at (375,218) size 62x4
              RenderSVGPath {line} at (375,218) size 25x4 [stroke={[type=SOLID] [color=#CCCCCC] [stroke width=3.00] [dash array={3.00, 4.00, 5.00}]}] [fill={[type=SOLID] [color=#CC0066]}] [x1=0.00] [y1=0.00] [x2=25.00] [y2=0.00]
              RenderSVGPath {line} at (416,218) size 21x4 [transform={m=((1.00,0.00)(0.00,1.00)) t=(40.00,0.00)}] [stroke={[type=SOLID] [color=#CCCCCC] [stroke width=3.00] [dash offset=5.50] [dash array={3.00, 4.00, 5.00}]}] [fill={[type=SOLID] [color=#CC0066]}] [x1=0.00] [y1=0.00] [x2=25.00] [y2=0.00]
          RenderSVGPath {line} at (155,218) size 25x4 [stroke={[type=SOLID] [color=#CC0066] [stroke width=3.00] [dash array={3.00, 4.00, 5.00}]}] [fill={[type=SOLID] [color=#CC0066]}] [x1=0.00] [y1=0.00] [x2=25.00] [y2=0.00]
          RenderSVGContainer {g} at (265,218) size 25x4 [transform={m=((1.00,0.00)(0.00,1.00)) t=(110.00,0.00)}]
            RenderSVGPath {line} at (265,218) size 25x4 [stroke={[type=SOLID] [color=#CC0066] [stroke width=3.00] [dash array={3.00, 4.00, 5.00}]}] [fill={[type=SOLID] [color=#CC0066]}] [x1=0.00] [y1=0.00] [x2=25.00] [y2=0.00]
          RenderSVGContainer {a} at (375,218) size 25x4 [transform={m=((1.00,0.00)(0.00,1.00)) t=(220.00,0.00)}]
            RenderSVGPath {line} at (375,218) size 25x4 [stroke={[type=SOLID] [color=#CC0066] [stroke width=3.00] [dash array={3.00, 4.00, 5.00}]}] [fill={[type=SOLID] [color=#CC0066]}] [x1=0.00] [y1=0.00] [x2=25.00] [y2=0.00]
        RenderSVGContainer {g} at (170,235) size 228x8 [transform={m=((1.00,0.00)(0.00,1.00)) t=(0.00,160.00)}]
          RenderSVGHiddenContainer {defs} at (0,0) size 0x0
            RenderSVGContainer {g} at (170,235) size 8x8
              RenderSVGRect {rect} at (170,235) size 8x8 [fill={[type=SOLID] [color=#CCCCCC]}] [x=10.00] [y=0.00] [width=8.00] [height=8.00]
          RenderSVGContainer {use} at (170,235) size 8x8
            RenderSVGContainer {g} at (170,235) size 8x8
              RenderSVGRect {rect} at (170,235) size 8x8 [fill={[type=SOLID] [color=#CCCCCC]}] [x=10.00] [y=0.00] [width=8.00] [height=8.00]
          RenderSVGContainer {use} at (280,235) size 8x8 [transform={m=((1.00,0.00)(0.00,1.00)) t=(110.00,0.00)}]
            RenderSVGContainer {g} at (280,235) size 8x8
              RenderSVGRect {rect} at (280,235) size 8x8 [fill={[type=SOLID] [color=#CCCCCC]}] [x=10.00] [y=0.00] [width=8.00] [height=8.00]
          RenderSVGContainer {use} at (390,235) size 8x8 [transform={m=((1.00,0.00)(0.00,1.00)) t=(220.00,0.00)}]
            RenderSVGContainer {g} at (390,235) size 8x8
              RenderSVGRect {rect} at (390,235) size 8x8 [fill={[type=SOLID] [color=#CCCCCC]}] [x=10.00] [y=0.00] [width=8.00] [height=8.00]
          RenderSVGRect {rect} at (170,235) size 8x8 [fill={[type=SOLID] [color=#CC0066]}] [x=10.00] [y=0.00] [width=8.00] [height=8.00]
          RenderSVGContainer {g} at (280,235) size 8x8 [transform={m=((1.00,0.00)(0.00,1.00)) t=(110.00,0.00)}]
            RenderSVGRect {rect} at (280,235) size 8x8 [fill={[type=SOLID] [color=#CC0066]}] [x=10.00] [y=0.00] [width=8.00] [height=8.00]
          RenderSVGContainer {a} at (390,235) size 8x8 [transform={m=((1.00,0.00)(0.00,1.00)) t=(220.00,0.00)}]
            RenderSVGRect {rect} at (390,235) size 8x8 [fill={[type=SOLID] [color=#CC0066]}] [x=10.00] [y=0.00] [width=8.00] [height=8.00]
        RenderSVGContainer {g} at (170,255) size 258x8 [transform={m=((1.00,0.00)(0.00,1.00)) t=(0.00,180.00)}]
          RenderSVGHiddenContainer {defs} at (0,0) size 0x0
            RenderSVGContainer {g} at (170,255) size 38x8
              RenderSVGRect {rect} at (170,255) size 8x8 [fill={[type=SOLID] [color=#CCCCCC]}] [x=10.00] [y=0.00] [width=8.00] [height=8.00]
              RenderSVGRect {rect} at (200,255) size 8x8 [transform={m=((1.00,0.00)(0.00,1.00)) t=(30.00,0.00)}] [fill={[type=SOLID] [color=#CCCCCC]}] [x=10.00] [y=0.00] [width=8.00] [height=8.00]
          RenderSVGContainer {use} at (170,255) size 38x8
            RenderSVGContainer {g} at (170,255) size 38x8
              RenderSVGRect {rect} at (170,255) size 8x8 [fill={[type=SOLID] [color=#CCCCCC]}] [x=10.00] [y=0.00] [width=8.00] [height=8.00]
              RenderSVGRect {rect} at (200,255) size 8x8 [transform={m=((1.00,0.00)(0.00,1.00)) t=(30.00,0.00)}] [fill={[type=SOLID] [color=#CCCCCC]}] [x=10.00] [y=0.00] [width=8.00] [height=8.00]
          RenderSVGContainer {use} at (280,255) size 38x8 [transform={m=((1.00,0.00)(0.00,1.00)) t=(110.00,0.00)}]
            RenderSVGContainer {g} at (280,255) size 38x8
              RenderSVGRect {rect} at (280,255) size 8x8 [fill={[type=SOLID] [color=#CCCCCC]}] [x=10.00] [y=0.00] [width=8.00] [height=8.00]
              RenderSVGRect {rect} at (310,255) size 8x8 [transform={m=((1.00,0.00)(0.00,1.00)) t=(30.00,0.00)}] [fill={[type=SOLID] [color=#CCCCCC]}] [x=10.00] [y=0.00] [width=8.00] [height=8.00]
          RenderSVGContainer {use} at (390,255) size 38x8 [transform={m=((1.00,0.00)(0.00,1.00)) t=(220.00,0.00)}]
            RenderSVGContainer {g} at (390,255) size 38x8
              RenderSVGRect {rect} at (390,255) size 8x8 [fill={[type=SOLID] [color=#CCCCCC]}] [x=10.00] [y=0.00] [width=8.00] [height=8.00]
              RenderSVGRect {rect} at (420,255) size 8x8 [transform={m=((1.00,0.00)(0.00,1.00)) t=(30.00,0.00)}] [fill={[type=SOLID] [color=#CCCCCC]}] [x=10.00] [y=0.00] [width=8.00] [height=8.00]
          RenderSVGRect {rect} at (170,255) size 8x8 [fill={[type=SOLID] [color=#CC0066]}] [x=10.00] [y=0.00] [width=8.00] [height=8.00]
          RenderSVGContainer {g} at (280,255) size 8x8 [transform={m=((1.00,0.00)(0.00,1.00)) t=(110.00,0.00)}]
            RenderSVGRect {rect} at (280,255) size 8x8 [fill={[type=SOLID] [color=#CC0066]}] [x=10.00] [y=0.00] [width=8.00] [height=8.00]
          RenderSVGContainer {a} at (390,255) size 8x8 [transform={m=((1.00,0.00)(0.00,1.00)) t=(220.00,0.00)}]
            RenderSVGRect {rect} at (390,255) size 8x8 [fill={[type=SOLID] [color=#CC0066]}] [x=10.00] [y=0.00] [width=8.00] [height=8.00]
        RenderSVGContainer {g} at (170,269) size 258x14 [transform={m=((1.00,0.00)(0.00,1.00)) t=(0.00,200.00)}]
          RenderSVGHiddenContainer {defs} at (0,0) size 0x0
            RenderSVGContainer {g} at (170,269) size 38x4
              RenderSVGRect {rect} at (170,269) size 8x4 [fill={[type=SOLID] [color=#CC0066]}] [x=10.00] [y=-6.00] [width=8.00] [height=4.00]
              RenderSVGRect {rect} at (185,269) size 8x4 [transform={m=((1.00,0.00)(0.00,1.00)) t=(15.00,0.00)}] [fill={[type=SOLID] [color=#E65233]}] [x=10.00] [y=-6.00] [width=8.00] [height=4.00]
              RenderSVGRect {rect} at (200,269) size 8x4 [transform={m=((1.00,0.00)(0.00,1.00)) t=(30.00,0.00)}] [fill={[type=SOLID] [color=#FFA500]}] [x=10.00] [y=-6.00] [width=8.00] [height=4.00]
          RenderSVGContainer {use} at (170,269) size 38x4
            RenderSVGContainer {g} at (170,269) size 38x4
              RenderSVGRect {rect} at (170,269) size 8x4 [fill={[type=SOLID] [color=#CC0066]}] [x=10.00] [y=-6.00] [width=8.00] [height=4.00]
              RenderSVGRect {rect} at (185,269) size 8x4 [transform={m=((1.00,0.00)(0.00,1.00)) t=(15.00,0.00)}] [fill={[type=SOLID] [color=#E65233]}] [x=10.00] [y=-6.00] [width=8.00] [height=4.00]
              RenderSVGRect {rect} at (200,269) size 8x4 [transform={m=((1.00,0.00)(0.00,1.00)) t=(30.00,0.00)}] [fill={[type=SOLID] [color=#FFA500]}] [x=10.00] [y=-6.00] [width=8.00] [height=4.00]
          RenderSVGContainer {use} at (280,269) size 38x4 [transform={m=((1.00,0.00)(0.00,1.00)) t=(110.00,0.00)}]
            RenderSVGContainer {g} at (280,269) size 38x4
              RenderSVGRect {rect} at (280,269) size 8x4 [fill={[type=SOLID] [color=#CC0066]}] [x=10.00] [y=-6.00] [width=8.00] [height=4.00]
              RenderSVGRect {rect} at (295,269) size 8x4 [transform={m=((1.00,0.00)(0.00,1.00)) t=(15.00,0.00)}] [fill={[type=SOLID] [color=#E65233]}] [x=10.00] [y=-6.00] [width=8.00] [height=4.00]
              RenderSVGRect {rect} at (310,269) size 8x4 [transform={m=((1.00,0.00)(0.00,1.00)) t=(30.00,0.00)}] [fill={[type=SOLID] [color=#FFA500]}] [x=10.00] [y=-6.00] [width=8.00] [height=4.00]
          RenderSVGContainer {use} at (390,269) size 38x4 [transform={m=((1.00,0.00)(0.00,1.00)) t=(220.00,0.00)}]
            RenderSVGContainer {g} at (390,269) size 38x4
              RenderSVGRect {rect} at (390,269) size 8x4 [fill={[type=SOLID] [color=#CC0066]}] [x=10.00] [y=-6.00] [width=8.00] [height=4.00]
              RenderSVGRect {rect} at (405,269) size 8x4 [transform={m=((1.00,0.00)(0.00,1.00)) t=(15.00,0.00)}] [fill={[type=SOLID] [color=#E65233]}] [x=10.00] [y=-6.00] [width=8.00] [height=4.00]
              RenderSVGRect {rect} at (420,269) size 8x4 [transform={m=((1.00,0.00)(0.00,1.00)) t=(30.00,0.00)}] [fill={[type=SOLID] [color=#FFA500]}] [x=10.00] [y=-6.00] [width=8.00] [height=4.00]
          RenderSVGRect {rect} at (170,275) size 8x8 [fill={[type=SOLID] [color=#CC0066]}] [x=10.00] [y=0.00] [width=8.00] [height=8.00]
          RenderSVGContainer {g} at (280,275) size 8x8 [transform={m=((1.00,0.00)(0.00,1.00)) t=(110.00,0.00)}]
            RenderSVGRect {rect} at (280,275) size 8x8 [fill={[type=SOLID] [color=#CC0066]}] [x=10.00] [y=0.00] [width=8.00] [height=8.00]
          RenderSVGContainer {a} at (390,275) size 8x8 [transform={m=((1.00,0.00)(0.00,1.00)) t=(220.00,0.00)}]
            RenderSVGRect {rect} at (390,275) size 8x8 [fill={[type=SOLID] [color=#CC0066]}] [x=10.00] [y=0.00] [width=8.00] [height=8.00]
    RenderSVGText {text} at (10,304) size 261x45 contains 1 chunk(s)
      RenderSVGInlineText {#text} at (0,0) size 261x45
        chunk 1 text run 1 at (10.00,340.00) startOffset 0 endOffset 16 width 261.00: "$Revision: 1.9 $"
    RenderSVGRect {rect} at (0,0) size 480x360 [stroke={[type=SOLID] [color=#000000]}] [x=1.00] [y=1.00] [width=478.00] [height=358.00]
