layer at (0,0) size 480x360
  RenderView at (0,0) size 480x360
layer at (0,0) size 480x360
  RenderSVGRoot {svg} at (0,0) size 480x360
    RenderSVGText {text} at (10,304) size 261x45 contains 1 chunk(s)
      RenderSVGInlineText {#text} at (0,0) size 261x45
        chunk 1 text run 1 at (10.00,340.00) startOffset 0 endOffset 16 width 261.00: "$Revision: 1.7 $"
    RenderSVGRect {rect} at (0,0) size 480x360 [stroke={[type=SOLID] [color=#000000]}] [x=1.00] [y=1.00] [width=478.00] [height=358.00]
    RenderSVGText {text} at (192,12) size 96x23 contains 1 chunk(s)
      RenderSVGInlineText {#text} at (0,0) size 95x23
        chunk 1 (middle anchor) text run 1 at (192.50,30.00) startOffset 0 endOffset 11 width 95.00: "repeatCount"
    RenderSVGContainer {g} at (70,92) size 336x127 [transform={m=((1.00,0.00)(0.00,1.00)) t=(130.00,80.00)}]
      RenderSVGContainer {g} at (70,112) size 180x107 [transform={m=((1.00,0.00)(0.00,1.00)) t=(120.00,45.00)}]
        RenderSVGText {text} at (-180,-13) size 180x17 contains 1 chunk(s)
          RenderSVGInlineText {#text} at (0,0) size 180x17
            chunk 1 (end anchor) text run 1 at (-180.00,0.00) startOffset 0 endOffset 30 width 180.00: "dur=5s repeatCount unspecified"
        RenderSVGText {text} at (-127,12) size 127x17 contains 1 chunk(s)
          RenderSVGInlineText {#text} at (0,0) size 127x17
            chunk 1 (end anchor) text run 1 at (-127.00,25.00) startOffset 0 endOffset 20 width 127.00: "dur=1s repeatCount=5"
        RenderSVGText {text} at (-145,37) size 145x17 contains 1 chunk(s)
          RenderSVGInlineText {#text} at (0,0) size 145x17
            chunk 1 (end anchor) text run 1 at (-145.00,50.00) startOffset 0 endOffset 23 width 145.00: "dur=10s repeatCount=0.5"
        RenderSVGText {text} at (-171,62) size 171x17 contains 1 chunk(s)
          RenderSVGInlineText {#text} at (0,0) size 171x17
            chunk 1 (end anchor) text run 1 at (-171.00,75.00) startOffset 0 endOffset 29 width 171.00: "dur=1s repeatCount=indefinite"
        RenderSVGText {text} at (-41,77) size 41x17 contains 1 chunk(s)
          RenderSVGInlineText {#text} at (0,0) size 41x17
            chunk 1 (end anchor) text run 1 at (-41.00,90.00) startOffset 0 endOffset 6 width 41.00: "end=5s"
      RenderSVGContainer {g} at (297,92) size 109x17 [transform={m=((1.00,0.00)(0.00,1.00)) t=(180.00,25.00)}]
        RenderSVGText {text} at (-13,-13) size 26x17 contains 1 chunk(s)
          RenderSVGInlineText {#text} at (0,0) size 25x17
            chunk 1 (middle anchor) text run 1 at (-12.50,0.00) startOffset 0 endOffset 4 width 25.00: "> 5s"
        RenderSVGText {text} at (64,-13) size 32x17 contains 1 chunk(s)
          RenderSVGInlineText {#text} at (0,0) size 31x17
            chunk 1 (middle anchor) text run 1 at (64.50,0.00) startOffset 0 endOffset 5 width 31.00: "0s-5s"
      RenderSVGContainer {g} at (303,113) size 94x89 [transform={m=((1.00,0.00)(0.00,1.00)) t=(180.00,40.00)}]
        RenderSVGHiddenContainer {defs} at (0,0) size 0x0
          RenderSVGRect {rect} at (303,113) size 14x14 [stroke={[type=SOLID] [color=#000000]}] [fill={[type=SOLID] [color=#CCCCCC]}] [x=-6.00] [y=-6.00] [width=12.00] [height=12.00]
        RenderSVGContainer {g} at (303,113) size 94x14
          RenderSVGContainer {use} at (303,113) size 14x14
            RenderSVGRect {rect} at (303,113) size 14x14 [stroke={[type=SOLID] [color=#000000]}] [fill={[type=SOLID] [color=#CCCCCC]}] [x=-6.00] [y=-6.00] [width=12.00] [height=12.00]
          RenderSVGContainer {use} at (383,113) size 14x14 [transform={m=((1.00,0.00)(0.00,1.00)) t=(80.00,0.00)}]
            RenderSVGRect {rect} at (383,113) size 14x14 [stroke={[type=SOLID] [color=#000000]}] [fill={[type=SOLID] [color=#CCCCCC]}] [x=-6.00] [y=-6.00] [width=12.00] [height=12.00]
          RenderSVGRect {rect} at (383,113) size 14x14 [stroke={[type=SOLID] [color=#000000]}] [fill={[type=SOLID] [color=#CC0066]}] [x=74.00] [y=-6.00] [width=12.00] [height=12.00]
        RenderSVGContainer {g} at (303,138) size 94x14 [transform={m=((1.00,0.00)(0.00,1.00)) t=(0.00,25.00)}]
          RenderSVGContainer {use} at (303,138) size 14x14
            RenderSVGRect {rect} at (303,138) size 14x14 [stroke={[type=SOLID] [color=#000000]}] [fill={[type=SOLID] [color=#CCCCCC]}] [x=-6.00] [y=-6.00] [width=12.00] [height=12.00]
          RenderSVGContainer {use} at (383,138) size 14x14 [transform={m=((1.00,0.00)(0.00,1.00)) t=(80.00,0.00)}]
            RenderSVGRect {rect} at (383,138) size 14x14 [stroke={[type=SOLID] [color=#000000]}] [fill={[type=SOLID] [color=#CCCCCC]}] [x=-6.00] [y=-6.00] [width=12.00] [height=12.00]
          RenderSVGRect {rect} at (383,138) size 14x14 [stroke={[type=SOLID] [color=#000000]}] [fill={[type=SOLID] [color=#CC0066]}] [x=74.00] [y=-6.00] [width=12.00] [height=12.00]
        RenderSVGContainer {g} at (303,163) size 94x14 [transform={m=((1.00,0.00)(0.00,1.00)) t=(0.00,50.00)}]
          RenderSVGContainer {use} at (303,163) size 14x14
            RenderSVGRect {rect} at (303,163) size 14x14 [stroke={[type=SOLID] [color=#000000]}] [fill={[type=SOLID] [color=#CCCCCC]}] [x=-6.00] [y=-6.00] [width=12.00] [height=12.00]
          RenderSVGContainer {use} at (383,163) size 14x14 [transform={m=((1.00,0.00)(0.00,1.00)) t=(80.00,0.00)}]
            RenderSVGRect {rect} at (383,163) size 14x14 [stroke={[type=SOLID] [color=#000000]}] [fill={[type=SOLID] [color=#CCCCCC]}] [x=-6.00] [y=-6.00] [width=12.00] [height=12.00]
          RenderSVGRect {rect} at (383,163) size 14x14 [stroke={[type=SOLID] [color=#000000]}] [fill={[type=SOLID] [color=#CC0066]}] [x=74.00] [y=-6.00] [width=12.00] [height=12.00]
        RenderSVGContainer {g} at (303,188) size 94x14 [transform={m=((1.00,0.00)(0.00,1.00)) t=(0.00,75.00)}]
          RenderSVGContainer {use} at (303,188) size 14x14
            RenderSVGRect {rect} at (303,188) size 14x14 [stroke={[type=SOLID] [color=#000000]}] [fill={[type=SOLID] [color=#CCCCCC]}] [x=-6.00] [y=-6.00] [width=12.00] [height=12.00]
          RenderSVGContainer {use} at (383,188) size 14x14 [transform={m=((1.00,0.00)(0.00,1.00)) t=(80.00,0.00)}]
            RenderSVGRect {rect} at (383,188) size 14x14 [stroke={[type=SOLID] [color=#000000]}] [fill={[type=SOLID] [color=#CCCCCC]}] [x=-6.00] [y=-6.00] [width=12.00] [height=12.00]
          RenderSVGRect {rect} at (383,188) size 14x14 [stroke={[type=SOLID] [color=#000000]}] [fill={[type=SOLID] [color=#CC0066]}] [x=74.00] [y=-6.00] [width=12.00] [height=12.00]
