layer at (0,0) size 480x360
  RenderView at (0,0) size 480x360
layer at (0,0) size 480x360
  RenderSVGRoot {svg} at (0,0) size 480x360
    RenderSVGText {text} at (10,304) size 261x45 contains 1 chunk(s)
      RenderSVGInlineText {#text} at (0,0) size 261x45
        chunk 1 text run 1 at (10.00,340.00) startOffset 0 endOffset 16 width 261.00: "$Revision: 1.6 $"
    RenderSVGRect {rect} at (0,0) size 480x360 [stroke={[type=SOLID] [color=#000000]}] [x=1.00] [y=1.00] [width=478.00] [height=358.00]
    RenderSVGText {text} at (191,12) size 98x23 contains 1 chunk(s)
      RenderSVGInlineText {#text} at (0,0) size 98x23
        chunk 1 (middle anchor) text run 1 at (191.00,30.00) startOffset 0 endOffset 12 width 98.00: "multiple end"
    RenderSVGContainer {g} at (103,52) size 200x227 [transform={m=((1.00,0.00)(0.00,1.00)) t=(100.00,100.00)}]
      RenderSVGContainer {g} at (103,112) size 77x167 [transform={m=((1.00,0.00)(0.00,1.00)) t=(80.00,25.00)}]
        RenderSVGText {text} at (-50,-13) size 50x17 contains 1 chunk(s)
          RenderSVGInlineText {#text} at (0,0) size 50x17
            chunk 1 (end anchor) text run 1 at (-50.00,0.00) startOffset 0 endOffset 9 width 50.00: "2 offsets"
        RenderSVGText {text} at (-73,12) size 73x17 contains 1 chunk(s)
          RenderSVGInlineText {#text} at (0,0) size 73x17
            chunk 1 (end anchor) text run 1 at (-73.00,25.00) startOffset 0 endOffset 12 width 73.00: "2 sync bases"
        RenderSVGText {text} at (-45,37) size 45x17 contains 1 chunk(s)
          RenderSVGInlineText {#text} at (0,0) size 45x17
            chunk 1 (end anchor) text run 1 at (-45.00,50.00) startOffset 0 endOffset 8 width 45.00: "2 repeat"
        RenderSVGText {text} at (-70,87) size 70x17 contains 1 chunk(s)
          RenderSVGInlineText {#text} at (0,0) size 70x17
            chunk 1 (end anchor) text run 1 at (-70.00,100.00) startOffset 0 endOffset 12 width 70.00: "2 event base"
        RenderSVGText {text} at (-77,112) size 77x17 contains 1 chunk(s)
          RenderSVGInlineText {#text} at (0,0) size 77x17
            chunk 1 (end anchor) text run 1 at (-77.00,125.00) startOffset 0 endOffset 12 width 77.00: "2 accessKeys"
        RenderSVGText {text} at (-27,137) size 27x17 contains 1 chunk(s)
          RenderSVGInlineText {#text} at (0,0) size 27x17
            chunk 1 (end anchor) text run 1 at (-27.00,150.00) startOffset 0 endOffset 4 width 27.00: "misc"
      RenderSVGContainer {g} at (234,52) size 69x57 [transform={m=((1.00,0.00)(0.00,1.00)) t=(150.00,5.00)}]
        RenderSVGText {text} at (-13,-13) size 26x17 contains 1 chunk(s)
          RenderSVGInlineText {#text} at (0,0) size 25x17
            chunk 1 (middle anchor) text run 1 at (-12.50,0.00) startOffset 0 endOffset 4 width 25.00: "0-1s"
        RenderSVGText {text} at (-16,-33) size 32x17 contains 1 chunk(s)
          RenderSVGInlineText {#text} at (0,0) size 31x17
            chunk 1 (middle anchor) text run 1 at (-15.50,-20.00) startOffset 0 endOffset 5 width 31.00: "2s-4s"
        RenderSVGText {text} at (-13,-53) size 26x17 contains 1 chunk(s)
          RenderSVGInlineText {#text} at (0,0) size 25x17
            chunk 1 (middle anchor) text run 1 at (-12.50,-40.00) startOffset 0 endOffset 4 width 25.00: "> 5s"
        RenderSVGContainer {g} at (277,72) size 26x37 [transform={m=((1.00,0.00)(0.00,1.00)) t=(40.00,0.00)}]
          RenderSVGText {text} at (-13,-13) size 26x17 contains 1 chunk(s)
            RenderSVGInlineText {#text} at (0,0) size 25x17
              chunk 1 (middle anchor) text run 1 at (-12.50,0.00) startOffset 0 endOffset 4 width 25.00: "1-2s"
          RenderSVGText {text} at (-13,-33) size 26x17 contains 1 chunk(s)
            RenderSVGInlineText {#text} at (0,0) size 25x17
              chunk 1 (middle anchor) text run 1 at (-12.50,-20.00) startOffset 0 endOffset 4 width 25.00: "4-5s"
      RenderSVGContainer {g} at (243,113) size 54x164 [transform={m=((1.00,0.00)(0.00,1.00)) t=(150.00,20.00)}]
        RenderSVGHiddenContainer {defs} at (0,0) size 0x0
          RenderSVGRect {rect} at (243,113) size 14x14 [stroke={[type=SOLID] [color=#000000]}] [fill={[type=SOLID] [color=#CCCCCC]}] [x=-6.00] [y=-6.00] [width=12.00] [height=12.00]
        RenderSVGContainer {g} at (243,113) size 54x14
          RenderSVGContainer {use} at (243,113) size 14x14
            RenderSVGRect {rect} at (243,113) size 14x14 [stroke={[type=SOLID] [color=#000000]}] [fill={[type=SOLID] [color=#CCCCCC]}] [x=-6.00] [y=-6.00] [width=12.00] [height=12.00]
          RenderSVGContainer {use} at (283,113) size 14x14 [transform={m=((1.00,0.00)(0.00,1.00)) t=(40.00,0.00)}]
            RenderSVGRect {rect} at (283,113) size 14x14 [stroke={[type=SOLID] [color=#000000]}] [fill={[type=SOLID] [color=#CCCCCC]}] [x=-6.00] [y=-6.00] [width=12.00] [height=12.00]
          RenderSVGRect {rect} at (243,113) size 14x14 [stroke={[type=SOLID] [color=#000000]}] [fill={[type=SOLID] [color=#CC0066]}] [x=-6.00] [y=-6.00] [width=12.00] [height=12.00]
        RenderSVGContainer {g} at (243,138) size 54x14 [transform={m=((1.00,0.00)(0.00,1.00)) t=(0.00,25.00)}]
          RenderSVGContainer {use} at (243,138) size 14x14
            RenderSVGRect {rect} at (243,138) size 14x14 [stroke={[type=SOLID] [color=#000000]}] [fill={[type=SOLID] [color=#CCCCCC]}] [x=-6.00] [y=-6.00] [width=12.00] [height=12.00]
          RenderSVGContainer {use} at (283,138) size 14x14 [transform={m=((1.00,0.00)(0.00,1.00)) t=(40.00,0.00)}]
            RenderSVGRect {rect} at (283,138) size 14x14 [stroke={[type=SOLID] [color=#000000]}] [fill={[type=SOLID] [color=#CCCCCC]}] [x=-6.00] [y=-6.00] [width=12.00] [height=12.00]
          RenderSVGRect {rect} at (243,138) size 14x14 [stroke={[type=SOLID] [color=#000000]}] [fill={[type=SOLID] [color=#CC0066]}] [x=-6.00] [y=-6.00] [width=12.00] [height=12.00]
        RenderSVGContainer {g} at (243,163) size 54x14 [transform={m=((1.00,0.00)(0.00,1.00)) t=(0.00,50.00)}]
          RenderSVGContainer {use} at (243,163) size 14x14
            RenderSVGRect {rect} at (243,163) size 14x14 [stroke={[type=SOLID] [color=#000000]}] [fill={[type=SOLID] [color=#CCCCCC]}] [x=-6.00] [y=-6.00] [width=12.00] [height=12.00]
          RenderSVGContainer {use} at (283,163) size 14x14 [transform={m=((1.00,0.00)(0.00,1.00)) t=(40.00,0.00)}]
            RenderSVGRect {rect} at (283,163) size 14x14 [stroke={[type=SOLID] [color=#000000]}] [fill={[type=SOLID] [color=#CCCCCC]}] [x=-6.00] [y=-6.00] [width=12.00] [height=12.00]
          RenderSVGRect {rect} at (243,163) size 14x14 [stroke={[type=SOLID] [color=#000000]}] [fill={[type=SOLID] [color=#CC0066]}] [x=-6.00] [y=-6.00] [width=12.00] [height=12.00]
        RenderSVGContainer {g} at (243,213) size 54x14 [transform={m=((1.00,0.00)(0.00,1.00)) t=(0.00,100.00)}]
          RenderSVGContainer {use} at (243,213) size 14x14
            RenderSVGRect {rect} at (243,213) size 14x14 [stroke={[type=SOLID] [color=#000000]}] [fill={[type=SOLID] [color=#CCCCCC]}] [x=-6.00] [y=-6.00] [width=12.00] [height=12.00]
          RenderSVGContainer {use} at (283,213) size 14x14 [transform={m=((1.00,0.00)(0.00,1.00)) t=(40.00,0.00)}]
            RenderSVGRect {rect} at (283,213) size 14x14 [stroke={[type=SOLID] [color=#000000]}] [fill={[type=SOLID] [color=#CCCCCC]}] [x=-6.00] [y=-6.00] [width=12.00] [height=12.00]
          RenderSVGRect {rect} at (283,213) size 14x14 [stroke={[type=SOLID] [color=#000000]}] [fill={[type=SOLID] [color=#CC0066]}] [x=34.00] [y=-6.00] [width=12.00] [height=12.00]
        RenderSVGContainer {g} at (243,238) size 54x14 [transform={m=((1.00,0.00)(0.00,1.00)) t=(0.00,125.00)}]
          RenderSVGContainer {use} at (243,238) size 14x14
            RenderSVGRect {rect} at (243,238) size 14x14 [stroke={[type=SOLID] [color=#000000]}] [fill={[type=SOLID] [color=#CCCCCC]}] [x=-6.00] [y=-6.00] [width=12.00] [height=12.00]
          RenderSVGContainer {use} at (283,238) size 14x14 [transform={m=((1.00,0.00)(0.00,1.00)) t=(40.00,0.00)}]
            RenderSVGRect {rect} at (283,238) size 14x14 [stroke={[type=SOLID] [color=#000000]}] [fill={[type=SOLID] [color=#CCCCCC]}] [x=-6.00] [y=-6.00] [width=12.00] [height=12.00]
          RenderSVGRect {rect} at (283,238) size 14x14 [stroke={[type=SOLID] [color=#000000]}] [fill={[type=SOLID] [color=#CC0066]}] [x=34.00] [y=-6.00] [width=12.00] [height=12.00]
        RenderSVGContainer {g} at (243,263) size 54x14 [transform={m=((1.00,0.00)(0.00,1.00)) t=(0.00,150.00)}]
          RenderSVGContainer {use} at (243,263) size 14x14
            RenderSVGRect {rect} at (243,263) size 14x14 [stroke={[type=SOLID] [color=#000000]}] [fill={[type=SOLID] [color=#CCCCCC]}] [x=-6.00] [y=-6.00] [width=12.00] [height=12.00]
          RenderSVGContainer {use} at (283,263) size 14x14 [transform={m=((1.00,0.00)(0.00,1.00)) t=(40.00,0.00)}]
            RenderSVGRect {rect} at (283,263) size 14x14 [stroke={[type=SOLID] [color=#000000]}] [fill={[type=SOLID] [color=#CCCCCC]}] [x=-6.00] [y=-6.00] [width=12.00] [height=12.00]
          RenderSVGRect {rect} at (243,263) size 14x14 [stroke={[type=SOLID] [color=#000000]}] [fill={[type=SOLID] [color=#CC0066]}] [x=-6.00] [y=-6.00] [width=12.00] [height=12.00]
