(GraphicsLayer
  (bounds 1600.00 585.00)
  (children 1
    (GraphicsLayer
      (bounds 1600.00 585.00)
      (contentsOpaque 1)
      (drawsContent 1)
      (children 1
        (GraphicsLayer
          (position -550.00 18.00)
          (bounds 100.00 100.00)
          (contentsOpaque 1)
        )
      )
    )
  )
)

