layer at (0,0) size 800x600
  RenderView at (0,0) size 800x600
layer at (0,0) size 800x600
  RenderBlock {HTML} at (0,0) size 800x600
    RenderBody {BODY} at (8,8) size 784x584
      RenderTable {TABLE} at (0,0) size 784x155
        RenderTableSection {TBODY} at (0,0) size 784x155
          RenderTableRow {TR} at (0,0) size 784x78
            RenderTableCell {TD} at (0,0) size 784x78 [r=0 c=0 rs=1 cs=4]
              RenderBR {BR} at (392,1) size 0x19
              RenderInline {FONT} at (0,0) size 780x57
                RenderText {#text} at (2,20) size 780x38
                  text run at (2,20) width 176: "The Supreme Court says "
                  text run at (178,20) width 533: "Wisconsin can continue using tuition vouchers to help poor parents send their "
                  text run at (711,20) width 71: "children to"
                  text run at (256,39) width 137: "church-run schools. "
                  text run at (392,39) width 136: "What's your stand? "
                RenderBR {BR} at (527,54) size 1x0
                RenderBR {BR} at (392,58) size 0x19
              RenderText {#text} at (0,0) size 0x0
          RenderTableRow {TR} at (0,78) size 784x20
            RenderTableCell {TD} at (0,79) size 545x17 [r=1 c=0 rs=1 cs=1]
              RenderInline {FONT} at (0,0) size 139x15
                RenderText {#text} at (405,1) size 139x15
                  text run at (405,1) width 139: "I agree with the program"
              RenderText {#text} at (0,0) size 0x0
            RenderTableCell {TD} at (545,78) size 79x20 [r=1 c=1 rs=1 cs=1]
              RenderBlock {INPUT} at (4,4) size 13x12
          RenderTableRow {TR} at (0,98) size 784x20
            RenderTableCell {TD} at (0,99) size 545x17 [r=2 c=0 rs=1 cs=1]
              RenderInline {FONT} at (0,0) size 150x15
                RenderText {#text} at (394,1) size 150x15
                  text run at (394,1) width 150: "I think vouchers are wrong"
              RenderText {#text} at (0,0) size 0x0
            RenderTableCell {TD} at (545,98) size 79x20 [r=2 c=1 rs=1 cs=1]
              RenderBlock {INPUT} at (4,4) size 13x12
          RenderTableRow {TR} at (0,118) size 784x37
            RenderTableCell {TD} at (0,128) size 624x17 [r=3 c=0 rs=1 cs=2]
              RenderInline {A} at (0,0) size 76x19 [color=#0000EE]
                RenderInline {FONT} at (0,0) size 76x15
                  RenderText {#text} at (274,1) size 76x15
                    text run at (274,1) width 76: "View Results"
              RenderInline {FONT} at (0,0) size 0x15
                RenderText {#text} at (0,0) size 0x0
            RenderTableCell {TD} at (624,118) size 160x37 [r=3 c=2 rs=1 cs=2]
              RenderButton {INPUT} at (61,3) size 38x31 [bgcolor=#C0C0C0]
                RenderBlock (anonymous) at (6,6) size 26x19
                  RenderText at (0,0) size 26x19
                    text run at (0,0) width 26: "vote"
              RenderText {#text} at (0,0) size 0x0
