layer at (0,0) size 785x3008
  RenderView at (0,0) size 785x600
layer at (0,0) size 785x3008
  RenderBlock {HTML} at (0,0) size 785x3008
    RenderBody {BODY} at (8,8) size 769x2992
      RenderTable {TABLE} at (0,0) size 769x2992 [border: (1px outset #808080)]
        RenderTableSection {TBODY} at (1,1) size 767x2990
          RenderTableRow {TR} at (0,2) size 767x155
            RenderTableCell {TD} at (2,59) size 36x41 [border: (1px inset #808080)] [r=0 c=0 rs=1 cs=1]
              RenderText {#text} at (12,11) size 12x19
                text run at (12,11) width 12: "A"
            RenderTableCell {TD} at (40,56) size 427x47 [border: (1px inset #808080)] [r=0 c=1 rs=1 cs=1]
              RenderImage {IMG} at (175,11) size 77x25
            RenderTableCell {TD} at (469,2) size 296x155 [border: (1px inset #808080)] [r=0 c=2 rs=1 cs=1]
              RenderText {#text} at (12,11) size 272x133
                text run at (12,11) width 272: "test test test test test test test test test test test"
                text run at (12,30) width 101: "test test test test "
                text run at (112,30) width 172: "test test test test test test test"
                text run at (12,49) width 201: "test test test test test test test test "
                text run at (212,49) width 72: "test test test"
                text run at (12,68) width 272: "test test test test test test test test test test test"
                text run at (12,87) width 26: "test "
                text run at (37,87) width 247: "test test test test test test test test test test"
                text run at (12,106) width 126: "test test test test test "
                text run at (137,106) width 147: "test test test test test test"
                text run at (37,125) width 222: "test test test test test test test test test"
          RenderTableRow {TR} at (0,159) size 767x155
            RenderTableCell {TD} at (2,216) size 36x41 [border: (1px inset #808080)] [r=1 c=0 rs=1 cs=1]
              RenderText {#text} at (13,11) size 10x19
                text run at (13,11) width 10: "B"
            RenderTableCell {TD} at (40,204) size 427x64 [border: (1px inset #808080)] [r=1 c=1 rs=1 cs=1]
              RenderImage {IMG} at (198,11) size 31x42
            RenderTableCell {TD} at (469,159) size 296x155 [border: (1px inset #808080)] [r=1 c=2 rs=1 cs=1]
              RenderText {#text} at (12,11) size 272x133
                text run at (12,11) width 272: "test test test test test test test test test test test"
                text run at (12,30) width 101: "test test test test "
                text run at (112,30) width 172: "test test test test test test test"
                text run at (12,49) width 201: "test test test test test test test test "
                text run at (212,49) width 72: "test test test"
                text run at (12,68) width 272: "test test test test test test test test test test test"
                text run at (12,87) width 26: "test "
                text run at (37,87) width 247: "test test test test test test test test test test"
                text run at (12,106) width 126: "test test test test test "
                text run at (137,106) width 147: "test test test test test test"
                text run at (37,125) width 222: "test test test test test test test test test"
          RenderTableRow {TR} at (0,316) size 767x160
            RenderTableCell {TD} at (2,375) size 36x41 [border: (1px inset #808080)] [r=2 c=0 rs=1 cs=1]
              RenderText {#text} at (12,11) size 12x19
                text run at (12,11) width 12: "C"
            RenderTableCell {TD} at (40,316) size 427x160 [border: (1px inset #808080)] [r=2 c=1 rs=1 cs=1]
              RenderImage {IMG} at (103,11) size 221x138
            RenderTableCell {TD} at (469,318) size 296x155 [border: (1px inset #808080)] [r=2 c=2 rs=1 cs=1]
              RenderText {#text} at (12,11) size 272x133
                text run at (12,11) width 272: "test test test test test test test test test test test"
                text run at (12,30) width 101: "test test test test "
                text run at (112,30) width 172: "test test test test test test test"
                text run at (12,49) width 201: "test test test test test test test test "
                text run at (212,49) width 72: "test test test"
                text run at (12,68) width 272: "test test test test test test test test test test test"
                text run at (12,87) width 26: "test "
                text run at (37,87) width 247: "test test test test test test test test test test"
                text run at (12,106) width 126: "test test test test test "
                text run at (137,106) width 147: "test test test test test test"
                text run at (37,125) width 222: "test test test test test test test test test"
          RenderTableRow {TR} at (0,478) size 767x155
            RenderTableCell {TD} at (2,535) size 36x41 [border: (1px inset #808080)] [r=3 c=0 rs=1 cs=1]
              RenderText {#text} at (12,11) size 12x19
                text run at (12,11) width 12: "D"
            RenderTableCell {TD} at (40,502) size 427x107 [border: (1px inset #808080)] [r=3 c=1 rs=1 cs=1]
              RenderImage {IMG} at (113,11) size 201x85
            RenderTableCell {TD} at (469,478) size 296x155 [border: (1px inset #808080)] [r=3 c=2 rs=1 cs=1]
              RenderText {#text} at (12,11) size 272x133
                text run at (12,11) width 272: "test test test test test test test test test test test"
                text run at (12,30) width 101: "test test test test "
                text run at (112,30) width 172: "test test test test test test test"
                text run at (12,49) width 201: "test test test test test test test test "
                text run at (212,49) width 72: "test test test"
                text run at (12,68) width 272: "test test test test test test test test test test test"
                text run at (12,87) width 26: "test "
                text run at (37,87) width 247: "test test test test test test test test test test"
                text run at (12,106) width 126: "test test test test test "
                text run at (137,106) width 147: "test test test test test test"
                text run at (37,125) width 222: "test test test test test test test test test"
          RenderTableRow {TR} at (0,635) size 767x155
            RenderTableCell {TD} at (2,692) size 36x41 [border: (1px inset #808080)] [r=4 c=0 rs=1 cs=1]
              RenderText {#text} at (13,11) size 10x19
                text run at (13,11) width 10: "E"
            RenderTableCell {TD} at (40,676) size 427x72 [border: (1px inset #808080)] [r=4 c=1 rs=1 cs=1]
              RenderImage {IMG} at (186,11) size 55x50
            RenderTableCell {TD} at (469,635) size 296x155 [border: (1px inset #808080)] [r=4 c=2 rs=1 cs=1]
              RenderText {#text} at (12,11) size 272x133
                text run at (12,11) width 272: "test test test test test test test test test test test"
                text run at (12,30) width 101: "test test test test "
                text run at (112,30) width 172: "test test test test test test test"
                text run at (12,49) width 201: "test test test test test test test test "
                text run at (212,49) width 72: "test test test"
                text run at (12,68) width 272: "test test test test test test test test test test test"
                text run at (12,87) width 26: "test "
                text run at (37,87) width 247: "test test test test test test test test test test"
                text run at (12,106) width 126: "test test test test test "
                text run at (137,106) width 147: "test test test test test test"
                text run at (37,125) width 222: "test test test test test test test test test"
          RenderTableRow {TR} at (0,792) size 767x155
            RenderTableCell {TD} at (2,849) size 36x41 [border: (1px inset #808080)] [r=5 c=0 rs=1 cs=1]
              RenderText {#text} at (13,11) size 10x19
                text run at (13,11) width 10: "F"
            RenderTableCell {TD} at (40,833) size 427x72 [border: (1px inset #808080)] [r=5 c=1 rs=1 cs=1]
              RenderImage {IMG} at (95,11) size 237x50
            RenderTableCell {TD} at (469,792) size 296x155 [border: (1px inset #808080)] [r=5 c=2 rs=1 cs=1]
              RenderText {#text} at (12,11) size 272x133
                text run at (12,11) width 272: "test test test test test test test test test test test"
                text run at (12,30) width 101: "test test test test "
                text run at (112,30) width 172: "test test test test test test test"
                text run at (12,49) width 201: "test test test test test test test test "
                text run at (212,49) width 72: "test test test"
                text run at (12,68) width 272: "test test test test test test test test test test test"
                text run at (12,87) width 26: "test "
                text run at (37,87) width 247: "test test test test test test test test test test"
                text run at (12,106) width 126: "test test test test test "
                text run at (137,106) width 147: "test test test test test test"
                text run at (37,125) width 222: "test test test test test test test test test"
          RenderTableRow {TR} at (0,949) size 767x155
            RenderTableCell {TD} at (2,1006) size 36x41 [border: (1px inset #808080)] [r=6 c=0 rs=1 cs=1]
              RenderText {#text} at (12,11) size 12x19
                text run at (12,11) width 12: "G"
            RenderTableCell {TD} at (40,984) size 427x85 [border: (1px inset #808080)] [r=6 c=1 rs=1 cs=1]
              RenderImage {IMG} at (155,11) size 117x63
            RenderTableCell {TD} at (469,949) size 296x155 [border: (1px inset #808080)] [r=6 c=2 rs=1 cs=1]
              RenderText {#text} at (12,11) size 272x133
                text run at (12,11) width 272: "test test test test test test test test test test test"
                text run at (12,30) width 101: "test test test test "
                text run at (112,30) width 172: "test test test test test test test"
                text run at (12,49) width 201: "test test test test test test test test "
                text run at (212,49) width 72: "test test test"
                text run at (12,68) width 272: "test test test test test test test test test test test"
                text run at (12,87) width 26: "test "
                text run at (37,87) width 247: "test test test test test test test test test test"
                text run at (12,106) width 126: "test test test test test "
                text run at (137,106) width 147: "test test test test test test"
                text run at (37,125) width 222: "test test test test test test test test test"
          RenderTableRow {TR} at (0,1106) size 767x155
            RenderTableCell {TD} at (2,1163) size 36x41 [border: (1px inset #808080)] [r=7 c=0 rs=1 cs=1]
              RenderText {#text} at (12,11) size 12x19
                text run at (12,11) width 12: "H"
            RenderTableCell {TD} at (40,1163) size 427x40 [border: (1px inset #808080)] [r=7 c=1 rs=1 cs=1]
              RenderImage {IMG} at (200,11) size 27x18
            RenderTableCell {TD} at (469,1106) size 296x155 [border: (1px inset #808080)] [r=7 c=2 rs=1 cs=1]
              RenderText {#text} at (12,11) size 272x133
                text run at (12,11) width 272: "test test test test test test test test test test test"
                text run at (12,30) width 101: "test test test test "
                text run at (112,30) width 172: "test test test test test test test"
                text run at (12,49) width 201: "test test test test test test test test "
                text run at (212,49) width 72: "test test test"
                text run at (12,68) width 272: "test test test test test test test test test test test"
                text run at (12,87) width 26: "test "
                text run at (37,87) width 247: "test test test test test test test test test test"
                text run at (12,106) width 126: "test test test test test "
                text run at (137,106) width 147: "test test test test test test"
                text run at (37,125) width 222: "test test test test test test test test test"
          RenderTableRow {TR} at (0,1263) size 767x155
            RenderTableCell {TD} at (2,1320) size 36x41 [border: (1px inset #808080)] [r=8 c=0 rs=1 cs=1]
              RenderText {#text} at (15,11) size 6x19
                text run at (15,11) width 6: "I"
            RenderTableCell {TD} at (40,1299) size 427x83 [border: (1px inset #808080)] [r=8 c=1 rs=1 cs=1]
              RenderImage {IMG} at (126,11) size 175x61
            RenderTableCell {TD} at (469,1263) size 296x155 [border: (1px inset #808080)] [r=8 c=2 rs=1 cs=1]
              RenderText {#text} at (12,11) size 272x133
                text run at (12,11) width 272: "test test test test test test test test test test test"
                text run at (12,30) width 101: "test test test test "
                text run at (112,30) width 172: "test test test test test test test"
                text run at (12,49) width 201: "test test test test test test test test "
                text run at (212,49) width 72: "test test test"
                text run at (12,68) width 272: "test test test test test test test test test test test"
                text run at (12,87) width 26: "test "
                text run at (37,87) width 247: "test test test test test test test test test test"
                text run at (12,106) width 126: "test test test test test "
                text run at (137,106) width 147: "test test test test test test"
                text run at (37,125) width 222: "test test test test test test test test test"
          RenderTableRow {TR} at (0,1420) size 767x155
            RenderTableCell {TD} at (2,1477) size 36x41 [border: (1px inset #808080)] [r=9 c=0 rs=1 cs=1]
              RenderText {#text} at (15,11) size 6x19
                text run at (15,11) width 6: "J"
            RenderTableCell {TD} at (40,1436) size 427x122 [border: (1px inset #808080)] [r=9 c=1 rs=1 cs=1]
              RenderImage {IMG} at (11,11) size 405x100
            RenderTableCell {TD} at (469,1420) size 296x155 [border: (1px inset #808080)] [r=9 c=2 rs=1 cs=1]
              RenderText {#text} at (12,11) size 272x133
                text run at (12,11) width 272: "test test test test test test test test test test test"
                text run at (12,30) width 101: "test test test test "
                text run at (112,30) width 172: "test test test test test test test"
                text run at (12,49) width 201: "test test test test test test test test "
                text run at (212,49) width 72: "test test test"
                text run at (12,68) width 272: "test test test test test test test test test test test"
                text run at (12,87) width 26: "test "
                text run at (37,87) width 247: "test test test test test test test test test test"
                text run at (12,106) width 126: "test test test test test "
                text run at (137,106) width 147: "test test test test test test"
                text run at (37,125) width 222: "test test test test test test test test test"
          RenderTableRow {TR} at (0,1577) size 767x155
            RenderTableCell {TD} at (2,1634) size 36x41 [border: (1px inset #808080)] [r=10 c=0 rs=1 cs=1]
              RenderText {#text} at (12,11) size 12x19
                text run at (12,11) width 12: "K"
            RenderTableCell {TD} at (40,1618) size 427x72 [border: (1px inset #808080)] [r=10 c=1 rs=1 cs=1]
              RenderImage {IMG} at (77,11) size 273x50
            RenderTableCell {TD} at (469,1577) size 296x155 [border: (1px inset #808080)] [r=10 c=2 rs=1 cs=1]
              RenderText {#text} at (12,11) size 272x133
                text run at (12,11) width 272: "test test test test test test test test test test test"
                text run at (12,30) width 101: "test test test test "
                text run at (112,30) width 172: "test test test test test test test"
                text run at (12,49) width 201: "test test test test test test test test "
                text run at (212,49) width 72: "test test test"
                text run at (12,68) width 272: "test test test test test test test test test test test"
                text run at (12,87) width 26: "test "
                text run at (37,87) width 247: "test test test test test test test test test test"
                text run at (12,106) width 126: "test test test test test "
                text run at (137,106) width 147: "test test test test test test"
                text run at (37,125) width 222: "test test test test test test test test test"
          RenderTableRow {TR} at (0,1734) size 767x155
            RenderTableCell {TD} at (2,1791) size 36x41 [border: (1px inset #808080)] [r=11 c=0 rs=1 cs=1]
              RenderText {#text} at (12,11) size 12x19
                text run at (12,11) width 12: "K"
            RenderTableCell {TD} at (40,1777) size 427x69 [border: (1px inset #808080)] [r=11 c=1 rs=1 cs=1]
              RenderImage {IMG} at (168,11) size 91x47
            RenderTableCell {TD} at (469,1734) size 296x155 [border: (1px inset #808080)] [r=11 c=2 rs=1 cs=1]
              RenderText {#text} at (12,11) size 272x133
                text run at (12,11) width 272: "test test test test test test test test test test test"
                text run at (12,30) width 101: "test test test test "
                text run at (112,30) width 172: "test test test test test test test"
                text run at (12,49) width 201: "test test test test test test test test "
                text run at (212,49) width 72: "test test test"
                text run at (12,68) width 272: "test test test test test test test test test test test"
                text run at (12,87) width 26: "test "
                text run at (37,87) width 247: "test test test test test test test test test test"
                text run at (12,106) width 126: "test test test test test "
                text run at (137,106) width 147: "test test test test test test"
                text run at (37,125) width 222: "test test test test test test test test test"
          RenderTableRow {TR} at (0,1891) size 767x155
            RenderTableCell {TD} at (2,1948) size 36x41 [border: (1px inset #808080)] [r=12 c=0 rs=1 cs=1]
              RenderText {#text} at (13,11) size 10x19
                text run at (13,11) width 10: "L"
            RenderTableCell {TD} at (40,1924) size 427x88 [border: (1px inset #808080)] [r=12 c=1 rs=1 cs=1]
              RenderImage {IMG} at (88,11) size 251x66
            RenderTableCell {TD} at (469,1891) size 296x155 [border: (1px inset #808080)] [r=12 c=2 rs=1 cs=1]
              RenderText {#text} at (12,11) size 272x133
                text run at (12,11) width 272: "test test test test test test test test test test test"
                text run at (12,30) width 101: "test test test test "
                text run at (112,30) width 172: "test test test test test test test"
                text run at (12,49) width 201: "test test test test test test test test "
                text run at (212,49) width 72: "test test test"
                text run at (12,68) width 272: "test test test test test test test test test test test"
                text run at (12,87) width 26: "test "
                text run at (37,87) width 247: "test test test test test test test test test test"
                text run at (12,106) width 126: "test test test test test "
                text run at (137,106) width 147: "test test test test test test"
                text run at (37,125) width 222: "test test test test test test test test test"
          RenderTableRow {TR} at (0,2048) size 767x155
            RenderTableCell {TD} at (2,2105) size 36x41 [border: (1px inset #808080)] [r=13 c=0 rs=1 cs=1]
              RenderText {#text} at (11,11) size 14x19
                text run at (11,11) width 14: "M"
            RenderTableCell {TD} at (40,2092) size 427x66 [border: (1px inset #808080)] [r=13 c=1 rs=1 cs=1]
              RenderImage {IMG} at (163,11) size 101x44
            RenderTableCell {TD} at (469,2048) size 296x155 [border: (1px inset #808080)] [r=13 c=2 rs=1 cs=1]
              RenderText {#text} at (12,11) size 272x133
                text run at (12,11) width 272: "test test test test test test test test test test test"
                text run at (12,30) width 101: "test test test test "
                text run at (112,30) width 172: "test test test test test test test"
                text run at (12,49) width 201: "test test test test test test test test "
                text run at (212,49) width 72: "test test test"
                text run at (12,68) width 272: "test test test test test test test test test test test"
                text run at (12,87) width 26: "test "
                text run at (37,87) width 247: "test test test test test test test test test test"
                text run at (12,106) width 126: "test test test test test "
                text run at (137,106) width 147: "test test test test test test"
                text run at (37,125) width 222: "test test test test test test test test test"
          RenderTableRow {TR} at (0,2205) size 767x155
            RenderTableCell {TD} at (2,2262) size 36x41 [border: (1px inset #808080)] [r=14 c=0 rs=1 cs=1]
              RenderText {#text} at (12,11) size 12x19
                text run at (12,11) width 12: "N"
            RenderTableCell {TD} at (40,2265) size 427x35 [border: (1px inset #808080)] [r=14 c=1 rs=1 cs=1]
              RenderImage {IMG} at (201,11) size 25x13
            RenderTableCell {TD} at (469,2205) size 296x155 [border: (1px inset #808080)] [r=14 c=2 rs=1 cs=1]
              RenderText {#text} at (12,11) size 272x133
                text run at (12,11) width 272: "test test test test test test test test test test test"
                text run at (12,30) width 101: "test test test test "
                text run at (112,30) width 172: "test test test test test test test"
                text run at (12,49) width 201: "test test test test test test test test "
                text run at (212,49) width 72: "test test test"
                text run at (12,68) width 272: "test test test test test test test test test test test"
                text run at (12,87) width 26: "test "
                text run at (37,87) width 247: "test test test test test test test test test test"
                text run at (12,106) width 126: "test test test test test "
                text run at (137,106) width 147: "test test test test test test"
                text run at (37,125) width 222: "test test test test test test test test test"
          RenderTableRow {TR} at (0,2362) size 767x155
            RenderTableCell {TD} at (2,2419) size 36x41 [border: (1px inset #808080)] [r=15 c=0 rs=1 cs=1]
              RenderText {#text} at (12,11) size 12x19
                text run at (12,11) width 12: "O"
            RenderTableCell {TD} at (40,2400) size 427x78 [border: (1px inset #808080)] [r=15 c=1 rs=1 cs=1]
              RenderImage {IMG} at (87,11) size 253x56
            RenderTableCell {TD} at (469,2362) size 296x155 [border: (1px inset #808080)] [r=15 c=2 rs=1 cs=1]
              RenderText {#text} at (12,11) size 272x133
                text run at (12,11) width 272: "test test test test test test test test test test test"
                text run at (12,30) width 101: "test test test test "
                text run at (112,30) width 172: "test test test test test test test"
                text run at (12,49) width 201: "test test test test test test test test "
                text run at (212,49) width 72: "test test test"
                text run at (12,68) width 272: "test test test test test test test test test test test"
                text run at (12,87) width 26: "test "
                text run at (37,87) width 247: "test test test test test test test test test test"
                text run at (12,106) width 126: "test test test test test "
                text run at (137,106) width 147: "test test test test test test"
                text run at (37,125) width 222: "test test test test test test test test test"
          RenderTableRow {TR} at (0,2519) size 767x155
            RenderTableCell {TD} at (2,2576) size 36x41 [border: (1px inset #808080)] [r=16 c=0 rs=1 cs=1]
              RenderText {#text} at (13,11) size 10x19
                text run at (13,11) width 10: "P"
            RenderTableCell {TD} at (40,2545) size 427x103 [border: (1px inset #808080)] [r=16 c=1 rs=1 cs=1]
              RenderImage {IMG} at (134,11) size 159x81
            RenderTableCell {TD} at (469,2519) size 296x155 [border: (1px inset #808080)] [r=16 c=2 rs=1 cs=1]
              RenderText {#text} at (12,11) size 272x133
                text run at (12,11) width 272: "test test test test test test test test test test test"
                text run at (12,30) width 101: "test test test test "
                text run at (112,30) width 172: "test test test test test test test"
                text run at (12,49) width 201: "test test test test test test test test "
                text run at (212,49) width 72: "test test test"
                text run at (12,68) width 272: "test test test test test test test test test test test"
                text run at (12,87) width 26: "test "
                text run at (37,87) width 247: "test test test test test test test test test test"
                text run at (12,106) width 126: "test test test test test "
                text run at (137,106) width 147: "test test test test test test"
                text run at (37,125) width 222: "test test test test test test test test test"
          RenderTableRow {TR} at (0,2676) size 767x155
            RenderTableCell {TD} at (2,2733) size 36x41 [border: (1px inset #808080)] [r=17 c=0 rs=1 cs=1]
              RenderText {#text} at (12,11) size 12x19
                text run at (12,11) width 12: "Q"
            RenderTableCell {TD} at (40,2688) size 427x130 [border: (1px inset #808080)] [r=17 c=1 rs=1 cs=1]
              RenderImage {IMG} at (107,11) size 213x108
            RenderTableCell {TD} at (469,2676) size 296x155 [border: (1px inset #808080)] [r=17 c=2 rs=1 cs=1]
              RenderText {#text} at (12,11) size 272x133
                text run at (12,11) width 272: "test test test test test test test test test test test"
                text run at (12,30) width 101: "test test test test "
                text run at (112,30) width 172: "test test test test test test test"
                text run at (12,49) width 201: "test test test test test test test test "
                text run at (212,49) width 72: "test test test"
                text run at (12,68) width 272: "test test test test test test test test test test test"
                text run at (12,87) width 26: "test "
                text run at (37,87) width 247: "test test test test test test test test test test"
                text run at (12,106) width 126: "test test test test test "
                text run at (137,106) width 147: "test test test test test test"
                text run at (37,125) width 222: "test test test test test test test test test"
          RenderTableRow {TR} at (0,2833) size 767x155
            RenderTableCell {TD} at (2,2890) size 36x41 [border: (1px inset #808080)] [r=18 c=0 rs=1 cs=1]
              RenderText {#text} at (13,11) size 10x19
                text run at (13,11) width 10: "R"
            RenderTableCell {TD} at (40,2834) size 427x152 [border: (1px inset #808080)] [r=18 c=1 rs=1 cs=1]
              RenderImage {IMG} at (41,11) size 345x130
            RenderTableCell {TD} at (469,2833) size 296x155 [border: (1px inset #808080)] [r=18 c=2 rs=1 cs=1]
              RenderText {#text} at (12,11) size 272x133
                text run at (12,11) width 272: "test test test test test test test test test test test"
                text run at (12,30) width 101: "test test test test "
                text run at (112,30) width 172: "test test test test test test test"
                text run at (12,49) width 201: "test test test test test test test test "
                text run at (212,49) width 72: "test test test"
                text run at (12,68) width 272: "test test test test test test test test test test test"
                text run at (12,87) width 26: "test "
                text run at (37,87) width 247: "test test test test test test test test test test"
                text run at (12,106) width 126: "test test test test test "
                text run at (137,106) width 147: "test test test test test test"
                text run at (37,125) width 222: "test test test test test test test test test"
